Name,Country,Sex,BirthYear,Division,WeightClassKg,BodyweightKg,Squat1Kg,Squat2Kg,Squat3Kg,Best3SquatKg,Bench1Kg,Bench2Kg,Bench3Kg,Best3BenchKg,Deadlift1Kg,Deadlift2Kg,Deadlift3Kg,Best3DeadliftKg,TotalKg,Place,Event,Equipment,BirthDate
Veronica Ompod,Philippines,F,2000,Juniors,43,42.68,100,107.5,112.5,112.5,47.5,52.5,-55,52.5,120,130,-135,130,295,2,SBD,Raw,
Leanne Jackson,Australia,F,2000,Juniors,76,73.2,140,150,155,155,102.5,110,115,115,170,185,195,195,465,9,SBD,Raw,
Clara Isabelle Haeberer,Germany,F,2000,Juniors,63,62.52,165,172.5,177.5,177.5,97.5,102.5,105,105,177.5,190,200,200,482.5,3,SBD,Raw,
Kellie Chong,Canada,F,2000,Juniors,57,55.52,142.5,-150,-150,142.5,77.5,82.5,85,85,177.5,-187.5,-192.5,177.5,405,8,SBD,Raw,
Cosmiana Montanaro,Italy,F,2000,Juniors,52,51.28,132.5,137.5,142.5,142.5,67.5,70,-72.5,70,162.5,170,172.5,172.5,385,3,SBD,Raw,
Lucie Peterová,Czechia,F,2000,Juniors,76,72.26,145,152.5,-157.5,152.5,82.5,87.5,-90,87.5,157.5,165,170,170,410,14,SBD,Raw,
Ida-Therese Lindeberg,Sweden,F,2000,Juniors,57,55.88,140,147.5,152.5,152.5,-82.5,82.5,85,85,170,180,185,185,422.5,2,SBD,Raw,
Laura Mautalen,France,F,2000,Juniors,76,74.86,175,182.5,-187.5,182.5,125,130,-135,130,207.5,220,227.5,227.5,540,1,SBD,Raw,
Yu Nomura,Japan,F,2000,Juniors,63,62.44,140,-150,-150,140,85,92.5,-95,92.5,185,-200,-200,185,417.5,11,SBD,Raw,
Camilla Salvarani,Italy,F,2000,Juniors,84,83.26,165,175,182.5,182.5,-87.5,87.5,-92.5,87.5,165,175,187.5,187.5,457.5,5,SBD,Raw,
Molly Clark,UK,F,2000,Juniors,52,50.36,115,122.5,125,125,85,87.5,-90,87.5,120,127.5,135,135,347.5,6,SBD,Raw,
Catriona Connolly,Ireland,F,2000,Juniors,76,70.4,120,130,137.5,137.5,80,85,87.5,87.5,180,190,-200,190,415,13,SBD,Raw,
Femke Ploeg,Netherlands,F,2000,Juniors,76,74.66,162.5,175,-180,175,90,95,-97.5,95,190,202.5,-207.5,202.5,472.5,7,SBD,Raw,
Ludivine Delos,France,F,2000,Juniors,63,63,-184.5,184.5,-188,184.5,97.5,102.5,-105,102.5,200,207.5,215,215,502,1,SBD,Raw,
Agnes Rudin,Sweden,F,2000,Juniors,76,75.34,180,190,200,200,107.5,112.5,117.5,117.5,190,200,207.5,207.5,525,3,SBD,Raw,
Jessica Kinney,USA,F,2000,Juniors,76,73.88,172.5,182.5,185,185,107.5,112.5,115,115,202.5,212.5,-225,212.5,512.5,4,SBD,Raw,
Ava Foley,Ireland,F,2000,Juniors,76,72.98,142.5,152.5,155,155,82.5,87.5,90,90,152.5,165,175,175,420,12,SBD,Raw,
Melina Irawo,UK,F,2000,Juniors,84,83.36,172.5,185,190,190,112.5,117.5,122.5,122.5,202.5,212.5,217.5,217.5,530,2,SBD,Raw,
Tori LaPerriere,Canada,F,2000,Juniors,57,56.16,137.5,142.5,147.5,147.5,100,102.5,105,105,152.5,162.5,170,170,422.5,3,SBD,Raw,
Camille Hadrys,France,F,2000,Juniors,52,52,140,147.5,152.5,152.5,82.5,87.5,90,90,167.5,-177.5,183,183,425.5,2,SBD,Raw,
Chan Day Yun,Singapore,F,2000,Juniors,57,56.78,135,142.5,-145,142.5,65,-67.5,-67.5,65,170,175,-190,175,382.5,13,SBD,Raw,
Jana Dutordoir,Belgium,F,2000,Juniors,63,61.86,132.5,140,-145,140,67.5,72.5,-75,72.5,160,167.5,175,175,387.5,15,SBD,Raw,
Grace Allinson,UK,F,2000,Juniors,63,62.92,130,137.5,142.5,142.5,85,90,-92.5,90,177.5,187.5,-195,187.5,420,10,SBD,Raw,
Anne-Sophie Brysse,Belgium,F,2000,Juniors,63,62.32,140,150,-155,150,75,80,-82.5,80,140,150,152.5,152.5,382.5,16,SBD,Raw,
Federica Casagranda,Italy,F,2000,Juniors,63,62.02,170,177.5,-185,177.5,85,-90,-90,85,165,172.5,-180,172.5,435,8,SBD,Raw,
Kelsey Scannevin,USA,F,2000,Juniors,57,55.88,-127.5,-127.5,127.5,127.5,67.5,72.5,75,75,147.5,155,160,160,362.5,14,SBD,Raw,
Vy Thuy Pham,Australia,F,2000,Juniors,57,56.82,137.5,-145,-145,137.5,75,77.5,80,80,167.5,172.5,-175,172.5,390,11,SBD,Raw,
Milly Wong,New Zealand,F,2000,Juniors,52,51.88,77.5,85,90,90,-65,-65,65,65,105,115,-125,115,270,10,SBD,Raw,
Ellen Grönlund,Finland,F,2000,Juniors,76,75.56,182.5,192.5,200,200,107.5,112.5,-117.5,112.5,205,217.5,-225,217.5,530,2,SBD,Raw,
Inmaculada Soto Ruiz,Spain,F,2000,Juniors,63,62.48,145,152.5,157.5,157.5,95,100,-105,100,200,210,-216.5,210,467.5,4,SBD,Raw,
Yu Hui Chua,Singapore,F,2000,Juniors,63,62.88,105,112.5,117.5,117.5,50,55,-57.5,55,142.5,155,-165,155,327.5,20,SBD,Raw,
Noemi Fanton,Italy,F,2000,Juniors,69,67.88,177.5,-187.5,-192.5,177.5,97.5,-102.5,102.5,102.5,195,205,-220,205,485,3,SBD,Raw,
Ean Qi Chong,Singapore,F,2000,Juniors,84,82.88,115,-122.5,-122.5,115,55,-57.5,57.5,57.5,132.5,137.5,140,140,312.5,7,SBD,Raw,
Jordan Bright,Ireland,F,2000,Juniors,69,68.26,177.5,187.5,-192.5,187.5,90,-97.5,97.5,97.5,162.5,175,185,185,470,6,SBD,Raw,
Kornelia Brunnhofer,Austria,F,2000,Juniors,69,66.78,130,140,147.5,147.5,72.5,77.5,-80,77.5,170,182.5,185,185,410,13,SBD,Raw,
Romy van Vianen,Netherlands,F,2000,Juniors,69,67.24,160,170,-175,170,97.5,-102.5,-102.5,97.5,172.5,185,-190,185,452.5,10,SBD,Raw,
Bettina Hanlon,UK,F,2000,Juniors,69,68.34,155,165,170,170,92.5,97.5,102.5,102.5,175,185,190,190,462.5,8,SBD,Raw,
Kristrun Ingunn Sveinsdottir,Iceland,F,2000,Juniors,57,55.96,112.5,120,125,125,65,70,72.5,72.5,125,135,142.5,142.5,340,15,SBD,Raw,
Selma Ramberg Storstad,Norway,F,2001,Juniors,57,55.58,142.5,150,-155,150,-97.5,97.5,-102.5,97.5,-147.5,147.5,167.5,167.5,415,6,SBD,Raw,
Juliane Slettnes,Norway,F,2001,Juniors,76,72.56,165,177.5,185,185,90,97.5,100,100,165,177.5,-187.5,177.5,462.5,10,SBD,Raw,
Lara Escosura Flores,Spain,F,2001,Juniors,57,55.7,135,142.5,-145,142.5,-82.5,82.5,-87.5,82.5,140,150,157.5,157.5,382.5,12,SBD,Raw,
Janelle Jolicoeur,Canada,F,2001,Juniors,63,62.8,135,-142.5,-142.5,135,95,-100,100,100,167.5,175,-180,175,410,12,SBD,Raw,
Lystus Ebosele,Ireland,F,2001,Juniors,84+,95.4,220,235,-245,235,-137.5,137.5,142.5,142.5,200,212.5,-222.5,212.5,590,1,SBD,Raw,
Nicole Hasell,South Africa,F,2001,Juniors,57,56.16,112.5,-125,125,125,-62.5,62.5,67.5,67.5,125,140,-152.5,140,332.5,16,SBD,Raw,
Amalie Senland,Norway,F,2001,Juniors,84+,107.68,177.5,187.5,197.5,197.5,-90,90,97.5,97.5,180,-195,-200,180,475,5,SBD,Raw,
Valeria Sedano,Mexico,F,2001,Juniors,43,37.64,60,-65,65,65,25,-27.5,-27.5,25,85,90,,90,180,4,SBD,Raw,
Caitlin Baxter,UK,F,2001,Juniors,57,56.52,147.5,152.5,157.5,157.5,97.5,102.5,-105,102.5,152.5,160,-162.5,160,420,4,SBD,Raw,
Daisy Arreola Garcia,USA,F,2001,Juniors,63,61.92,155,165,172.5,172.5,87.5,-92.5,92.5,92.5,170,182.5,-192.5,182.5,447.5,7,SBD,Raw,
Dominika Jansová,Czechia,F,2001,Juniors,63,62.82,125,132.5,137.5,137.5,85,87.5,-90,87.5,160,170,-172.5,170,395,13,SBD,Raw,
Erholove Izobodo-John,UK,F,2001,Juniors,84,82.84,202.5,212.5,-217.5,212.5,92.5,97.5,100,100,230,240,253,253,565.5,1,SBD,Raw,
Antara Jackson,USA,F,2001,Juniors,84,83.2,160,170,-175,170,107.5,115,117.5,117.5,197.5,205,-210,205,492.5,3,SBD,Raw,
Helena Mariella Decker,Germany,F,2001,Juniors,57,56.58,150,157.5,160,160,87.5,92.5,-95,92.5,175,185,192.5,192.5,445,1,SBD,Raw,
Talor Aiyegbeni,Ireland,F,2001,Juniors,84+,90.06,155,165,170,170,65,70,-72.5,70,175,185,-197.5,185,425,7,SBD,Raw,
Joy Edralin,Canada,F,2001,Juniors,52,50.4,110,120,127.5,127.5,60,65,-67.5,65,150,160,-172.5,160,352.5,5,SBD,Raw,
Nataliia Maha,Ukraine,F,2001,Juniors,57,56.38,150,-157.5,157.5,157.5,72.5,77.5,-80,77.5,155,165,-175,165,400,9,SBD,Raw,
Harriet Waite,UK,F,2001,Juniors,84+,98.14,182.5,195,200,200,85,90,95,95,175,192.5,197.5,197.5,492.5,4,SBD,Raw,
Joya Khairallah,Lebanon,F,2001,Juniors,52,51.62,-147.5,147.5,-152.5,147.5,95,97.5,,97.5,177.5,180,183.5,183.5,428.5,1,SBD,Raw,
Merel van den Bosch,Netherlands,F,2001,Juniors,47,46.98,112.5,117.5,120,120,62.5,65,-67.5,65,117.5,122.5,130,130,315,2,SBD,Raw,
Jessica Medwell,Czechia,F,2001,Juniors,69,68.36,150,-155,-155,150,67.5,-72.5,-72.5,67.5,170,177.5,-182.5,177.5,395,17,SBD,Raw,
Alba Boström,Sweden,F,2001,Juniors,63,62.84,162.5,170,175,175,115,117.5,-122.5,117.5,190,200,207.5,207.5,500,2,SBD,Raw,
Jessica Jeremaes,Switzerland,F,2001,Juniors,63,62.5,130,137.5,142.5,142.5,82.5,87.5,90,90,150,160,-165,160,392.5,14,SBD,Raw,
Clara Haulot,Belgium,F,2001,Juniors,69,67.64,145,152.5,157.5,157.5,-82.5,82.5,-85,82.5,162.5,172.5,180,180,420,11,SBD,Raw,
Eszter Sallai,Hungary,F,2001,Juniors,69,68.64,155,165,172.5,172.5,95,100,102.5,102.5,185,195,202.5,202.5,477.5,5,SBD,Raw,
Kolbrun Jonsdottir,Iceland,F,2001,Juniors,84+,118.5,180,192.5,202.5,202.5,72.5,77.5,-82.5,77.5,175,-190,190,190,470,6,SBD,Raw,
Carla Swanepoel,Canada,F,2001,Juniors,69,67.86,150,-157.5,-157.5,150,75,80,-82.5,80,167.5,175,-180,175,405,16,SBD,Raw,
Sara Ciaravino,Italy,F,2001,Juniors,43,42.46,105,110,-115,110,65,70,72.5,72.5,120,127.5,132.5,132.5,315,1,SBD,Raw,
Marta Scuderi,Italy,F,2001,Juniors,47,46.66,115,122.5,-130,122.5,-65,-65,65,65,140,150,157.5,157.5,345,1,SBD,Raw,
Fanni Savela,Finland,F,2001,Juniors,69,68.3,147.5,155,-160,155,110,115,117.5,117.5,180,190,195,195,467.5,7,SBD,Raw,
Giorgia Silvia Berton,Italy,F,2001,Juniors,76,69.92,192.5,200,-210.5,200,97.5,102.5,-105,102.5,190,205,-222.5,205,507.5,5,SBD,Raw,
Sarah Lau,Singapore,F,2001,Juniors,52,51.8,92.5,97.5,102.5,102.5,62.5,-67.5,-67.5,62.5,107.5,115,122.5,122.5,287.5,9,SBD,Raw,
Kaya Goossens,Belgium,F,2001,Juniors,69,67.76,152.5,-160,-160,152.5,77.5,82.5,-85,82.5,160,170,175,175,410,14,SBD,Raw,
Charlotte Worley,New Zealand,F,2001,Juniors,84+,103.46,172.5,180,187.5,187.5,-105,105,110,110,195,207.5,212.5,212.5,510,2,SBD,Raw,
Fanny Lamminen,Finland,F,2002,Juniors,57,56.66,160,167.5,-170,167.5,-87.5,-87.5,87.5,87.5,147.5,157.5,-160,157.5,412.5,7,SBD,Raw,
Lucy Robinson #1,UK,F,2002,Juniors,63,62.56,162.5,170,175,175,75,80,82.5,82.5,185,192.5,200,200,457.5,5,SBD,Raw,
Maura Howden,Canada,F,2002,Juniors,84+,101.12,185,195,202.5,202.5,95,-102.5,102.5,102.5,187.5,197.5,202.5,202.5,507.5,3,SBD,Raw,
Amelia Fox #1,UK,F,2002,Juniors,57,56.26,125,135,142.5,142.5,65,70,72.5,72.5,165,180,-190,180,395,10,SBD,Raw,
Sreelakshmi S S,India,F,2002,Juniors,47,45.82,80,-87.5,87.5,87.5,62.5,-67.5,-67.5,62.5,105,112.5,-125,112.5,262.5,5,SBD,Raw,
Andorina Bouchoux,France,F,2002,Juniors,69,68.88,187.5,195.5,198,198,102.5,107.5,110,110,200,210,217.5,217.5,525.5,2,SBD,Raw,
Samantha Eugenie,France,F,2002,Juniors,69,66.64,170,180,185,185,105,112.5,117.5,117.5,207.5,217.5,225,225,527.5,1,SBD,Raw,
Betty Aborah,Netherlands,F,2002,Juniors,63,61.24,150,157.5,160,160,77.5,80,-82.5,80,197.5,207.5,210,210,450,6,SBD,Raw,
Ayn Walls,Canada,F,2002,Juniors,76,74.26,157.5,165,172.5,172.5,77.5,82.5,85,85,175,185,192.5,192.5,450,11,SBD,Raw,
Fina Doyle,Ireland,F,2002,Juniors,52,51.48,105,112.5,115,115,57.5,62.5,-65,62.5,145,155,160,160,337.5,7,SBD,Raw,
Martina Fortuna,Italy,F,2002,Juniors,47,46.08,105,107.5,-110,107.5,-57.5,-57.5,-57.5,,127.5,132.5,-135,132.5,,DQ,SBD,Raw,
Jessa Mae Tabuan,Philippines,F,2002,Juniors,47,46.78,90,100,102.5,102.5,60,65,67.5,67.5,132.5,142.5,-145,142.5,312.5,3,SBD,Raw,
Carolyn Connor,USA,F,2003,Juniors,69,68.54,170,180,182.5,182.5,85,90,92.5,92.5,185,197.5,202.5,202.5,477.5,4,SBD,Raw,
Mina Holmefjord,Norway,F,2003,Juniors,84,82.18,170,180,-185,180,100,105,107.5,107.5,175,187.5,190,190,477.5,4,SBD,Raw,
Jane Erasmo,Philippines,F,2003,Juniors,52,51,100,-110,-110,100,65,67.5,70,70,110,-130,130,130,300,8,SBD,Raw,
Megan Janes,Canada,F,2003,Juniors,63,62.26,120,127.5,-132.5,127.5,70,-75,75,75,140,147.5,-152.5,147.5,350,19,SBD,Raw,
Kayla Overchuk,Canada,F,2003,Juniors,76,75.56,172.5,180,-185,180,77.5,82.5,-85,82.5,200,210,-220,210,472.5,8,SBD,Raw,
Julia Maślankowska,Poland,F,2004,Juniors,47,46.74,102.5,107.5,-110,107.5,50,52.5,55,55,105,110,112.5,112.5,275,4,SBD,Raw,
Oona Kujala,Finland,F,2004,Juniors,69,67.86,150,-157.5,160,160,85,-90,-90,85,155,165,-172.5,165,410,15,SBD,Raw,
Karina Tychkova,Kazakhstan,F,2004,Juniors,43,42.98,75,82.5,-85,82.5,37.5,40,42.5,42.5,100,-105,-105,100,225,3,SBD,Raw,
Daana Parra,Mexico,F,2004,Juniors,76,75.96,175,180,187.5,187.5,107.5,112.5,-115,112.5,185,197.5,202.5,202.5,502.5,6,SBD,Raw,
Amelie Valentova,Czechia,F,2004,Juniors,69,65.82,155,162.5,167.5,167.5,70,75,-77.5,75,165,175,-182.5,175,417.5,12,SBD,Raw,
Joy Rindfleisch,USA,F,2004,Juniors,63,62.96,145,-152.5,-152.5,145,102.5,110,117.5,117.5,160,170,-182.5,170,432.5,9,SBD,Raw,
Pia Jacqueline Ruschke,Germany,F,2004,Juniors,69,68.82,157.5,167.5,175,175,85,90,92.5,92.5,177.5,-187.5,187.5,187.5,455,9,SBD,Raw,
Julia Jurczyk,Poland,F,2005,Sub-Juniors,47,46.98,90,-95,-95,90,50,52.5,55,55,105,110,-115,110,255,3,SBD,Raw,
Camily Santos,Brazil,F,2005,Sub-Juniors,63,62.5,77.5,-82.5,-90,77.5,40,-45,-47.5,40,100,107.5,-115,107.5,225,12,SBD,Raw,
Alicja Rojek,Poland,F,2005,Sub-Juniors,69,67.08,110,-115,115,115,65,67.5,-70,67.5,140,150,-157.5,150,332.5,7,SBD,Raw,
Wiktoria Jozwiak,Poland,F,2005,Sub-Juniors,76,75.22,135,140,145,145,-65,65,70,70,162.5,172.5,-175,172.5,387.5,5,SBD,Raw,
Luella Bowden,USA,F,2005,Sub-Juniors,84+,134.48,-245,-245,245,245,107.5,117.5,121,121,190,210,212.5,212.5,578.5,1,SBD,Raw,
Mikayla VonLangen,USA,F,2005,Sub-Juniors,84,81.1,140,147.5,-155,147.5,57.5,60,65,65,157.5,167.5,172.5,172.5,385,4,SBD,Raw,
Regina Petri,Hungary,F,2005,Sub-Juniors,84+,84.24,110,117.5,122.5,122.5,55,60,-62.5,60,145,155,162.5,162.5,345,6,SBD,Raw,
Linda Boneccher,Italy,F,2005,Sub-Juniors,84,81.08,-137.5,140,150,150,85,90,-92.5,90,145,157.5,167.5,167.5,407.5,2,SBD,Raw,
Tiggy Sadler-Barker,Australia,F,2005,Sub-Juniors,76,74.08,137.5,147.5,-152.5,147.5,80,85,90,90,140,150,-157.5,150,387.5,4,SBD,Raw,
Lois Anderton,UK,F,2005,Sub-Juniors,69,67.42,145,150,-152.5,150,70,72.5,-75,72.5,145,155,162.5,162.5,385,1,SBD,Raw,
Paula Calero Bano,Spain,F,2005,Sub-Juniors,47,45.86,95,102.5,-110,102.5,62.5,-65,-65,62.5,105,112.5,117.5,117.5,282.5,1,SBD,Raw,
Lucia Bernabeu Gomez,Spain,F,2005,Sub-Juniors,52,50.16,102.5,107.5,112.5,112.5,67.5,-72.5,-75,67.5,-115,115,120,120,300,8,SBD,Raw,
Kateřina Bláhová,Czechia,F,2005,Sub-Juniors,76,72.56,130,135,140,140,62.5,65,-67.5,65,145,150,155,155,360,8,SBD,Raw,
Nikhita D N,India,F,2005,Sub-Juniors,84,77.56,115,125,127.5,127.5,40,45,47.5,47.5,120,130,-140,130,305,8,SBD,Raw,
Loane Venot,France,F,2005,Sub-Juniors,57,56.84,122.5,130,135,135,60,65,67.5,67.5,145,150,-157.5,150,352.5,4,SBD,Raw,
Eerika Palosaari,Finland,F,2005,Sub-Juniors,52,51.98,90,97.5,-105,97.5,65,70,-75,70,110,120,130,130,297.5,9,SBD,Raw,
Dora Gosztak,Hungary,F,2005,Sub-Juniors,52,51.64,100,107.5,115,115,50,-55,-55,50,-130,-130,,,,DQ,SBD,Raw,
Makoto Inoue,Japan,F,2005,Sub-Juniors,57,55.66,100,105,-110,105,52.5,55,57.5,57.5,115,120,125,125,287.5,9,SBD,Raw,
Haia Khaled,Egypt,F,2005,Sub-Juniors,69,68.2,132.5,140,142.5,142.5,-80,-80,80,80,152.5,162.5,-165,162.5,385,3,SBD,Raw,
Elisa Misiano,Italy,F,2005,Sub-Juniors,52,49.64,-135,135,138.5,138.5,70,72.5,-75,72.5,120,127.5,-137.5,127.5,338.5,2,SBD,Raw,
Zaviera McMillan,New Zealand,F,2005,Sub-Juniors,63,60.3,115,120,125,125,62.5,67.5,-72.5,67.5,140,145,-157.5,145,337.5,4,SBD,Raw,
Kirase Ishii,Japan,F,2005,Sub-Juniors,47,46.1,60,-67.5,-67.5,60,30,-35,-35,30,-60,60,-75,60,150,9,SBD,Raw,
Rachel Olshansky,USA,F,2005,Sub-Juniors,84,82.5,115,125,-132.5,125,65,70,72.5,72.5,142.5,157.5,-165,157.5,355,6,SBD,Raw,
Janeli Kang,Estonia,F,2005,Sub-Juniors,76,74.42,125,-135,135,135,75,80,-82.5,80,155,165,175,175,390,2,SBD,Raw,
Abigail Hanrahan-Miller,Canada,F,2005,Sub-Juniors,57,56.14,-127.5,127.5,-135,127.5,67.5,70,72.5,72.5,150,157.5,164,164,364,3,SBD,Raw,
Catinka Fourie,South Africa,F,2005,Sub-Juniors,63,62.68,87.5,92.5,-97.5,92.5,47.5,50,-52.5,50,115,122.5,-125,122.5,265,10,SBD,Raw,
Chloe Tang,Singapore,F,2005,Sub-Juniors,57,56.28,145,155,-160.5,155,72.5,77.5,80,80,150,162.5,173,173,408,1,SBD,Raw,
Abigail Taylor-Peckover,Canada,F,2005,Sub-Juniors,76,73.1,145,150,155,155,92.5,97.5,-102.5,97.5,165,175,-185,175,427.5,1,SBD,Raw,
Veronika Cyrany,Czechia,F,2005,Sub-Juniors,69,67.82,115,120,-125,120,57.5,60,-62.5,60,142.5,150,-157.5,150,330,8,SBD,Raw,
Kiara Kullamaa,Estonia,F,2005,Sub-Juniors,84+,130.3,130,140,-150,140,57.5,65,-70,65,150,165,170,170,375,4,SBD,Raw,
Chealsea Enemor,USA,F,2005,Sub-Juniors,84+,112.04,-207.5,207.5,217.5,217.5,115,-120.5,-120.5,115,205,217.5,227.5,227.5,560,2,SBD,Raw,
Adél Gyöngyösi,Hungary,F,2005,Sub-Juniors,76,75.24,112.5,120,-125,120,87.5,95,-100,95,145,155,-160,155,370,7,SBD,Raw,
Maiju Lehtimäki,Finland,F,2005,Sub-Juniors,57,57,80,85,-90,85,45,47.5,-50,47.5,95,100,105,105,237.5,12,SBD,Raw,
Jessica Haggerty,USA,F,2005,Sub-Juniors,52,51.1,-125,-125,130,130,75,80,82.5,82.5,125,135,140,140,352.5,1,SBD,Raw,
Khrystyna Ulianyk,Ukraine,F,2005,Sub-Juniors,43,39.38,67.5,-72.5,72.5,72.5,40,-42.5,-42.5,40,85,-90,90,90,202.5,2,SBD,Raw,
Amina Karimova,Kazakhstan,F,2005,Sub-Juniors,69,63.4,140,145,-147.5,145,80,-85,-85,80,110,,,110,335,6,SBD,Raw,
Shelby Dahler,Australia,F,2005,Sub-Juniors,84+,139.44,140,155,-160,155,70,80,-82.5,80,120,-135,-140,120,355,5,SBD,Raw,
Amelia Gercken,USA,F,2005,Sub-Juniors,76,74.92,130,137.5,-142.5,137.5,65,70,-72.5,70,120,125,130,130,337.5,10,SBD,Raw,
Francis Viljoen,South Africa,F,2005,Sub-Juniors,69,68.72,107.5,115,120,120,52.5,55,57.5,57.5,130,137.5,140,140,317.5,10,SBD,Raw,
Roechelle Van der Merwe,South Africa,F,2006,Sub-Juniors,76,74,122.5,130,135,135,62.5,67.5,72.5,72.5,145,-160,170,170,377.5,6,SBD,Raw,
Yuna Nishiyama,Japan,F,2006,Sub-Juniors,52,51.98,92.5,100,105,105,52.5,57.5,-62.5,57.5,115,125,-132.5,125,287.5,10,SBD,Raw,
Ayane Ueda,Japan,F,2006,Sub-Juniors,69,66.96,80,-92.5,92.5,92.5,50,60,-65,60,-100,110,115,115,267.5,12,SBD,Raw,
Daniela Fadrná,Czechia,F,2006,Sub-Juniors,76,73.96,100,110,112.5,112.5,72.5,75,77.5,77.5,135,142.5,152.5,152.5,342.5,9,SBD,Raw,
Eleni Guerrera,USA,F,2006,Sub-Juniors,57,54.96,130,135,-137.5,135,67.5,72.5,-75,72.5,163.5,-171.5,172.5,172.5,380,2,SBD,Raw,
Elisabeth Haakonsen,Norway,F,2006,Sub-Juniors,57,55.9,120,127.5,-132.5,127.5,80,82.5,-85,82.5,-130,140,-152.5,140,350,5,SBD,Raw,
Wanda Pencáková,Czechia,F,2006,Sub-Juniors,57,55.42,122.5,127.5,-130,127.5,62.5,65,67.5,67.5,120,127.5,132.5,132.5,327.5,7,SBD,Raw,
Juuli Kostian,Finland,F,2006,Sub-Juniors,63,62.4,150,157.5,160.5,160.5,95,98.5,-99.5,98.5,162.5,172.5,-177.5,172.5,431.5,1,SBD,Raw,
Nikola Nábělková,Czechia,F,2006,Sub-Juniors,84,80.08,120,-130,130,130,65,70,-72.5,70,150,157.5,-172.5,157.5,357.5,5,SBD,Raw,
Alice Del Fabro,Italy,F,2006,Sub-Juniors,52,50.66,117.5,-122.5,122.5,122.5,62.5,65,-67.5,65,130,137.5,-145,137.5,325,4,SBD,Raw,
Takako Hagiwara,Japan,F,2006,Sub-Juniors,76,71.4,115,122.5,-127.5,122.5,60,65,-67.5,65,132.5,137.5,142.5,142.5,330,11,SBD,Raw,
Rebekka Reinert,Germany,F,2006,Sub-Juniors,84,83.08,165,175,183,183,85,90,95,95,172.5,182.5,190,190,468,1,SBD,Raw,
Štěpánka Radová,Czechia,F,2006,Sub-Juniors,69,68.52,120,-127.5,-127.5,120,60,65,-67.5,65,132.5,140,-147.5,140,325,9,SBD,Raw,
Chanté Mulder,South Africa,F,2006,Sub-Juniors,69,67.52,100,-107.5,-110,100,55,60,-62.5,60,125,135,-137.5,135,295,11,SBD,Raw,
Gaby Watman,UK,F,2006,Sub-Juniors,57,55.36,120,130,135,135,57.5,60,-62.5,60,132.5,140,147.5,147.5,342.5,6,SBD,Raw,
Katie Tatum,UK,F,2006,Sub-Juniors,84,76.36,105,112.5,117.5,117.5,67.5,72.5,-75,72.5,120,127.5,132.5,132.5,322.5,7,SBD,Raw,
Grace Roberts,South Africa,F,2006,Sub-Juniors,57,56.1,77.5,85,90,90,45,-50,50,50,105,112.5,-120,112.5,252.5,11,SBD,Raw,
Dorka Pal,Hungary,F,2007,Sub-Juniors,76,73.24,152.5,-162.5,-162.5,152.5,-65,65,67.5,67.5,155,165,167.5,167.5,387.5,3,SBD,Raw,
Nikola Tomsova,Czechia,F,2007,Sub-Juniors,52,51.68,107.5,115,-120,115,62.5,-67.5,67.5,67.5,122.5,130,137.5,137.5,320,7,SBD,Raw,
Anakha Justin,India,F,2007,Sub-Juniors,76,70.34,95,-107.5,107.5,107.5,37.5,45,-47.5,45,110,120,130,130,282.5,12,SBD,Raw,
Eva Polini,USA,F,2007,Sub-Juniors,63,61.56,-130,132.5,140,140,60,67.5,-70,67.5,125,130,-132.5,130,337.5,5,SBD,Raw,
Ada Imola Jucha,Hungary,F,2007,Sub-Juniors,43,42.6,65,72.5,-75,72.5,40,-42.5,-42.5,40,75,-90,,75,187.5,3,SBD,Raw,
Haruka Kurosawa,Japan,F,2007,Sub-Juniors,63,60.76,80,90,-100,90,40,-47.5,-47.5,40,85,105,112.5,112.5,242.5,11,SBD,Raw,
Olivia Myk,Ireland,F,2007,Sub-Juniors,69,66.44,130,137.5,142.5,142.5,75,-80,80,80,130,140,145,145,367.5,4,SBD,Raw,
Tessa Roberts,Mexico,F,2007,Sub-Juniors,47,45.48,90,95,97.5,97.5,40,-45,-45,40,95,105,110,110,247.5,4,SBD,Raw,
Hanna Lara Janovics,Hungary,F,2007,Sub-Juniors,63,61.52,85,90,-95,90,50,52.5,55,55,110,117.5,125,125,270,8,SBD,Raw,
Alba Domingo Venegas,Spain,F,2007,Sub-Juniors,63,61.22,-107.5,-107.5,107.5,107.5,67.5,72.5,-75,72.5,145,152.5,-157.5,152.5,332.5,6,SBD,Raw,
Ninni Kopola,Finland,F,2007,Sub-Juniors,69,63.26,110,115,122.5,122.5,72.5,77.5,80,80,110,125,132.5,132.5,335,5,SBD,Raw,
Jitka Ducková,Czechia,F,2007,Sub-Juniors,57,56.44,95,-102.5,102.5,102.5,50,55,-57.5,55,115,122.5,130,130,287.5,10,SBD,Raw,
Cassandre Olivier,France,F,2007,Sub-Juniors,52,50.24,112.5,117.5,120,120,72.5,-77.5,-77.5,72.5,125,-135,137.5,137.5,330,3,SBD,Raw,
Jana Rojková,Czechia,F,2007,Sub-Juniors,63,62.34,125,130,132.5,132.5,-80,80,-82.5,80,130,137.5,-140,137.5,350,3,SBD,Raw,
Tiffany Pilnikova,UK,F,2007,Sub-Juniors,43,40.2,67.5,72.5,75,75,40,45,47.5,47.5,87.5,92.5,95,95,217.5,1,SBD,Raw,
Lidia Grzeskowiak,Poland,F,2008,Sub-Juniors,47,46.7,80,85,-90,85,40,45,-47.5,45,90,100,-110,100,230,7,SBD,Raw,
Jenna Tarvainen,Finland,F,2008,Sub-Juniors,47,47,82.5,87.5,-90,87.5,57.5,60,-62.5,60,90,95,-100,95,242.5,6,SBD,Raw,
Talitha de Wet,South Africa,F,2008,Sub-Juniors,63,62.62,85,95,100,100,40,45,50,50,100,110,120,120,270,9,SBD,Raw,
Lina Alrehaili,Saudi Arabia,F,2000,Juniors,52,51.96,-110,110,120,120,-67.5,67.5,-72.5,67.5,150,167.5,172.5,172.5,360,4,SBD,Raw,
Melİsa Akkuş,Turkey,F,2001,Juniors,63,62.8,125,135,137.5,137.5,70,75,77.5,77.5,135,145,152.5,152.5,367.5,17,SBD,Raw,
Michelle Guirado,Mexico,F,2001,Juniors,57,56.84,135,145,150,150,-85,85,-90,85,162.5,175,185,185,420,5,SBD,Raw,
Patrycja Tomczyk,Poland,F,2002,Juniors,63,61.34,120,-125,127.5,127.5,75,-77.5,77.5,77.5,150,157.5,-160,157.5,362.5,18,SBD,Raw,
Aleksandra Opioła,Poland,F,2003,Juniors,76,75.56,140,147.5,-150,147.5,80,-85,-85,80,150,157.5,162.5,162.5,390,15,SBD,Raw,
Wiktoria Dankowska,Poland,F,2004,Juniors,57,56.56,100,107.5,110,110,65,70,-75,70,110,120,-125,120,300,17,SBD,Raw,
Ecem Özçelİkçİ,Turkey,F,2004,Juniors,84,82.76,115,-127.5,-127.5,115,65,70,-75,70,140,147.5,-155,147.5,332.5,6,SBD,Raw,
Emily Byrne,UK,F,2005,Sub-Juniors,69,67.62,132.5,140,142.5,142.5,80,82.5,85,85,145,155,157.5,157.5,385,2,SBD,Raw,
Skye Moore,UK,F,2005,Sub-Juniors,63,61.7,145,152.5,157.5,157.5,82.5,85,-87.5,85,165,175,-190.5,175,417.5,2,SBD,Raw,
Pragathi P Nair,India,F,2005,Sub-Juniors,47,46.4,62.5,72.5,80,80,30,35,42.5,42.5,-105,112.5,120,120,242.5,5,SBD,Raw,
Hsin-Ying Li,Taiwan,F,2005,Sub-Juniors,84+,105.02,-155,155,165,165,65,75,80,80,150,162.5,167.5,167.5,412.5,3,SBD,Raw,
Alejandra Mondragon,Mexico,F,2005,Sub-Juniors,52,51.9,105,-115,115,115,65,70,-72.5,70,115,125,137.5,137.5,322.5,6,SBD,Raw,
Aleena Akhtar,UK,F,2005,Sub-Juniors,63,57.22,100,105,107.5,107.5,50,55,57.5,57.5,125,140,152.5,152.5,317.5,7,SBD,Raw,
Sherine Hussain,Bahrain,F,2005,Sub-Juniors,52,50.86,110,-115,115,115,50,-52.5,52.5,52.5,142.5,150,156.5,156.5,324,5,SBD,Raw,
Trinity Klinger,USA,F,2006,Sub-Juniors,47,47,67.5,72.5,77.5,77.5,40,-42.5,-42.5,40,80,-85,90,90,207.5,8,SBD,Raw,
Hannah Karpal,UK,F,2006,Sub-Juniors,57,55.58,90,100,-105,100,52.5,55,57.5,57.5,132.5,-140,-140,132.5,290,8,SBD,Raw,
Marelin Jüriado,Estonia,F,2006,Sub-Juniors,84,78.74,125,130,135,135,85,-90,,85,170,185,-187.5,185,405,3,SBD,Raw,
Lenka Veronyova,Slovakia,F,2007,Sub-Juniors,63,61.44,125,132.5,-140,132.5,-57.5,-65,-65,,135,142.5,-150,142.5,,DQ,SBD,Raw,
Dong-Le Gu,Taiwan,F,2007,Sub-Juniors,47,45.9,92.5,-97.5,97.5,97.5,42.5,47.5,50,50,112.5,120,125,125,272.5,2,SBD,Raw,
Krisztián Posta,Hungary,M,2000,Juniors,74,73.72,210,225,237.5,237.5,132.5,137.5,-147.5,137.5,235,247.5,265,265,640,14,SBD,Raw,
Alexander Wei Rui Ang,Singapore,M,2000,Juniors,93,92,270,282.5,287.5,287.5,162.5,167.5,170,170,315,-335,-345,315,772.5,8,SBD,Raw,
Ewan Belgrove,Australia,M,2000,Juniors,83,82.26,-300,-300,-300,,170,-180,-180,170,260,-280,-280,260,,DQ,SBD,Raw,
Kyle Nowak #1,USA,M,2000,Juniors,66,65.54,205,217.5,227.5,227.5,132.5,137.5,-140,137.5,-185,302.5,-308,302.5,667.5,1,SBD,Raw,
Andrei Petcu,Romania,M,2000,Juniors,83,82.15,-230,230,240,240,155,160,-165,160,255,275,-285,275,675,14,SBD,Raw,
James Low,Canada,M,2000,Juniors,93,91.16,265,280,287.5,287.5,175,185,190,190,250,270,-277.5,270,747.5,15,SBD,Raw,
Raphi Leong,Thailand,M,2000,Juniors,83,82.62,210,220,225,225,137.5,142.5,145,145,272.5,280,-287.5,280,650,22,SBD,Raw,
Simen Johnson Myrvold,Norway,M,2000,Juniors,83,83,225,232.5,,232.5,185,197.5,-202.5,197.5,225,,,225,655,21,SBD,Raw,
Mario Montaño Camacho,Spain,M,2000,Juniors,93,92.32,250,265,272.5,272.5,180,187.5,-192.5,187.5,277.5,290,300,300,760,11,SBD,Raw,
Alberto Herraiz Francés,Spain,M,2000,Juniors,74,73.46,260,267.5,-270,267.5,160,-165,-165,160,270,277.5,282.5,282.5,710,1,SBD,Raw,
Matt Trainor,New Zealand,M,2000,Juniors,83,82.75,247.5,-260,260,260,165,172.5,177.5,177.5,75,185,227.5,227.5,665,16,SBD,Raw,
Woei Jin Seah,Singapore,M,2000,Juniors,93,92.06,235,247.5,-260,247.5,167.5,177.5,180,180,275,-287.5,-287.5,275,702.5,20,SBD,Raw,
Etienne El Chaer,Lebanon,M,2000,Juniors,120,118.28,315,330,-340,330,200,210,217.5,217.5,-350,368.5,378.5,378.5,926,1,SBD,Raw,
Paul Harayo,USA,M,2000,Juniors,120,115.44,295,320,340,340,185,195,-205,195,300,330,-350,330,865,5,SBD,Raw,
László Póta,Hungary,M,2000,Juniors,74,72.7,215,230,245,245,160,167.5,175,175,250,265,270,270,690,4,SBD,Raw,
Jonah Wiendieck,Germany,M,2000,Juniors,120,119.34,310,330,340,340,235,245.5,250.5,250.5,305,322.5,335,335,925.5,2,SBD,Raw,
Shane Nutt,USA,M,2000,Juniors,93,92.02,275,290,-300,290,165,170,-175,170,305,-325,-345,305,765,9,SBD,Raw,
John Wortel,Netherlands,M,2000,Juniors,93,92.56,265,-275,-275,265,175,-180,185,185,280,-292.5,-292.5,280,730,16,SBD,Raw,
Liam McManus,Ireland,M,2000,Juniors,105,102.1,245,260,270,270,150,157.5,162.5,162.5,280,305,327.5,327.5,760,12,SBD,Raw,
Sean Por,Singapore,M,2000,Juniors,74,72.6,140,195,-215,195,110,120,130,130,-25,75,,75,400,20,SBD,Raw,
Ryan Yong,Singapore,M,2000,Juniors,59,58.66,177.5,-185,190,190,125,130,-135,130,212.5,227.5,240,240,560,2,SBD,Raw,
Peyton Johnson,USA,M,2000,Juniors,93,91.5,275,282.5,-287.5,282.5,165,167.5,-170,167.5,327.5,340,-352.5,340,790,6,SBD,Raw,
Artem Usov,Czechia,M,2000,Juniors,120+,141.82,-300,300,315,315,-190,190,200,200,300,315,-327.5,315,830,5,SBD,Raw,
Joachim Smet,Belgium,M,2000,Juniors,83,82.7,212.5,220,225,225,137.5,142.5,-145,142.5,245,260,267.5,267.5,635,25,SBD,Raw,
Percy Covic,Germany,M,2000,Juniors,120,113.92,310,325,332.5,332.5,185,192.5,197.5,197.5,320,337.5,345,345,875,4,SBD,Raw,
Alex Marriott,Canada,M,2000,Juniors,120+,132.26,277.5,295,305,305,177.5,182.5,-190,182.5,290,307.5,317.5,317.5,805,6,SBD,Raw,
Jean-Philippe Haid,Belgium,M,2000,Juniors,93,90.2,220,227.5,232.5,232.5,130,-135,-135,130,260,272.5,-280,272.5,635,25,SBD,Raw,
Dániel László Molnár,Hungary,M,2000,Juniors,83,82.32,215,225,235,235,152.5,160,165,165,240,260,270,270,670,15,SBD,Raw,
Connor Heim,USA,M,2000,Juniors,83,82.45,240,250,260,260,165,172.5,175,175,297.5,-315,-330,297.5,732.5,5,SBD,Raw,
Collin Yakwo,Netherlands,M,2000,Juniors,105,104.82,-260,-265,265,265,175,-185,-185,175,290,305,-312.5,305,745,15,SBD,Raw,
Yulong Li #1,Sweden,M,2000,Juniors,93,90.1,282.5,290,297.5,297.5,177.5,185,190,190,300,-315,-315,300,787.5,7,SBD,Raw,
Jonathan Celis,Belgium,M,2000,Juniors,93,91.9,275,285,-292.5,285,180,187.5,-190,187.5,275,285,-290,285,757.5,13,SBD,Raw,
Jesus Amado,Mexico,M,2000,Juniors,74,73.7,205,220,-230,220,145,150,152.5,152.5,260,-275,-275,260,632.5,16,SBD,Raw,
Matthew Kearney,Canada,M,2000,Juniors,83,82.4,245,255,-262.5,255,170,-180,-180,170,280,-300,-315,280,705,12,SBD,Raw,
Nuutti Mansukoski,Finland,M,2000,Juniors,120+,158.2,295,320,335,335,190,205,-212.5,205,305,335,-362.5,335,875,3,SBD,Raw,
Tomáš Martynek,Czechia,M,2000,Juniors,93,92.34,227.5,-242.5,242.5,242.5,160,167.5,-172.5,167.5,250,275,-285,275,685,22,SBD,Raw,
Lachlan Rickards,New Zealand,M,2000,Juniors,66,65.56,170,-180,180,180,102.5,107.5,-110,107.5,220,-232.5,-232.5,220,507.5,13,SBD,Raw,
Aday Ventura Rosa,Spain,M,2000,Juniors,120,118.58,265,277.5,285,285,170,-180,180,180,255,270,280,280,745,13,SBD,Raw,
Taiga Sato,Japan,M,2000,Juniors,66,65.74,205,220,225,225,-150,150,-157.5,150,257.5,270,-295,270,645,2,SBD,Raw,
Sean Koch,Switzerland,M,2000,Juniors,120+,157.3,360,385,-392.5,385,220,232.5,-237.5,232.5,315,,327.5,327.5,945,2,SBD,Raw,
Rene Caky,Switzerland,M,2000,Juniors,105,103.86,270,290,300,300,200,210,215,215,292.5,315,327.5,327.5,842.5,2,SBD,Raw,
Kristian Steed,US Virgin Islands,M,2000,Juniors,105,103.68,265,282.5,-295,282.5,160,172.5,-182.5,172.5,270,285,-290,285,740,17,SBD,Raw,
Erlend Kristensen,Norway,M,2000,Juniors,93,91.56,75,,,75,167.5,175,-177.5,175,275,290,-305,290,540,28,SBD,Raw,
Pavel Kurek,Czechia,M,2000,Juniors,105,103.96,240,252.5,257.5,257.5,155,160,-162.5,160,265,285,300,300,717.5,18,SBD,Raw,
Bobby Kian Tong Tan,Singapore,M,2000,Juniors,74,73.94,225,240,247.5,247.5,175,-185,190,190,-240,240,265,265,702.5,2,SBD,Raw,
Matt Silvey,New Zealand,M,2000,Juniors,93,92.52,265,-275,275,275,165,170,-172.5,170,-317.5,317.5,-342.5,317.5,762.5,10,SBD,Raw,
Fares Sboui,Tunisia,M,2000,Juniors,105,104.5,300,310,-317.5,310,200,207.5,-212.5,207.5,322.5,332.5,335,335,852.5,1,SBD,Raw,
Marcos Albaladejo Castro,Spain,M,2001,Juniors,74,72.32,240,-252.5,252.5,252.5,137.5,142.5,-145,142.5,267.5,280,-292.5,280,675,9,SBD,Raw,
Temur Samkharadze,Georgia,M,2001,Juniors,120+,154.2,360,385,395,395,210,225,-232.5,225,340,360,388,388,1008,1,SBD,Raw,
Karel Rada #2,Czechia,M,2001,Juniors,83,82.85,237.5,-245,-245,237.5,140,-145,145,145,260,-280,-282.5,260,642.5,24,SBD,Raw,
Antonio Pérez Barros,Spain,M,2001,Juniors,105,104.4,300,-320,333,333,157.5,165,170,170,305,327.5,-340,327.5,830.5,3,SBD,Raw,
Kristian Eek Haugen,Norway,M,2001,Juniors,120,117.9,270,285,292.5,292.5,205,217.5,225,225,290,310,315,315,832.5,7,SBD,Raw,
Mats Høylo Kjøllesdal,Norway,M,2001,Juniors,105,105,270,-282.5,282.5,282.5,177.5,-187.5,187.5,187.5,280,305,-322.5,305,775,11,SBD,Raw,
Andrew Blackwood,Ireland,M,2001,Juniors,120,111.46,280,295,305,305,167.5,177.5,182.5,182.5,310,325,335,335,822.5,8,SBD,Raw,
Bjorn Andre Sutterud Westbye,Norway,M,2001,Juniors,120+,154,320,340,360,360,160,177.5,182.5,182.5,-300,-300,300,300,842.5,4,SBD,Raw,
Diego Barquin,Uruguay,M,2001,Juniors,66,65.58,205,215,222.5,222.5,132.5,137.5,142.5,142.5,225,235,240,240,605,8,SBD,Raw,
Yuto Usui,Japan,M,2001,Juniors,105,103.3,250,-265,265,265,155,162.5,167.5,167.5,285,307.5,-312.5,307.5,740,16,SBD,Raw,
Diego López-Dóriga Zubeldía,Spain,M,2001,Juniors,83,82.26,230,242.5,-250,242.5,-120,120,130,130,75,,,75,447.5,27,SBD,Raw,
Iván Campano Díaz,Spain,M,2001,Juniors,59,58.84,197.5,210,-220,210,125,-132.5,132.5,132.5,240,-255,-255,240,582.5,1,SBD,Raw,
Andrea Cervi,Belgium,M,2001,Juniors,66,65.94,190,-197.5,197.5,197.5,117.5,122.5,-125,122.5,220,232.5,,232.5,552.5,10,SBD,Raw,
Elias Hanken Fiskerstrand,Norway,M,2001,Juniors,83,82.5,240,250,255,255,-160,-160,160,160,270,290,307.5,307.5,722.5,10,SBD,Raw,
Adam McAlpine,Ireland,M,2001,Juniors,83,82.7,232.5,240,-245,240,157.5,165,-170,165,245,-255,255,255,660,20,SBD,Raw,
Ben Calder-Lee,New Zealand,M,2001,Juniors,74,73.54,227.5,235,240,240,142.5,-147.5,-147.5,142.5,252.5,-265,-265,252.5,635,15,SBD,Raw,
Fabian Lim,Singapore,M,2001,Juniors,105,103.92,140,,,140,172.5,180,187.5,187.5,105,,,105,432.5,23,SBD,Raw,
David Eross,Hungary,M,2001,Juniors,105,102.8,210,225,-235,225,130,137.5,145,145,255,272.5,277.5,277.5,647.5,21,SBD,Raw,
Semih Ayguen,Germany,M,2001,Juniors,93,92.56,260,277.5,285,285,175,182.5,190,190,290,307.5,327.5,327.5,802.5,4,SBD,Raw,
Thomas Czaplicki,France,M,2001,Juniors,83,82.8,252.5,267.5,272.5,272.5,157.5,165,-170,165,295,-310,-310,295,732.5,6,SBD,Raw,
Saeid Alhasi,Libya,M,2001,Juniors,120,116.38,-315,-315,320,320,205,212.5,-217.5,212.5,340,350,355,355,887.5,3,SBD,Raw,
Adam Duane,Ireland,M,2001,Juniors,74,73.56,242.5,250,-257.5,250,150,155,157.5,157.5,260,272.5,277.5,277.5,685,8,SBD,Raw,
Bjarne Duecker,Germany,M,2001,Juniors,105,104.62,290,310,-315,310,195,202.5,-205,202.5,282.5,300,-320,300,812.5,4,SBD,Raw,
Filip Čáp,Czechia,M,2001,Juniors,74,73.9,182.5,190,-195,190,125,-130,-130,125,242.5,-252.5,,242.5,557.5,19,SBD,Raw,
Calum O'Mahony Baker,Ireland,M,2001,Juniors,83,82.9,-247.5,257.5,267.5,267.5,147.5,-152.5,-152.5,147.5,275,290,-302.5,290,705,13,SBD,Raw,
Sean Isomura-Gillard,Thailand,M,2001,Juniors,93,92.54,225,237.5,245,245,170,177.5,182.5,182.5,270,285,-295,285,712.5,18,SBD,Raw,
Imad Hamich,Belgium,M,2002,Juniors,105,103.06,265,277.5,285,285,180,187.5,192.5,192.5,285,302.5,-315,302.5,780,10,SBD,Raw,
Tuan-Hien Tran,Canada,M,2002,Juniors,66,65.62,-190,190,205,205,112.5,-120,120,120,270,288,307.5,307.5,632.5,4,SBD,Raw,
Gabriele Bellomo,Italy,M,2002,Juniors,83,82.76,245,260,270,270,155,162.5,167.5,167.5,290,305,315,315,752.5,3,SBD,Raw,
Samuel Kwan,Singapore,M,2002,Juniors,66,65.76,190,202.5,-210,202.5,140,145,150,150,250,262.5,-275,262.5,615,6,SBD,Raw,
Filip Prokeš,Czechia,M,2002,Juniors,66,64.9,190,200,-205,200,107.5,112.5,115,115,205,220,-227.5,220,535,11,SBD,Raw,
Tomáš Votava,Czechia,M,2002,Juniors,83,82.16,235,-242.5,242.5,242.5,155,162.5,-165,162.5,250,257.5,-265,257.5,662.5,17,SBD,Raw,
Gerlai Andras,Hungary,M,2002,Juniors,93,89.48,230,240,250,250,155,162.5,170,170,250,265,-280,265,685,21,SBD,Raw,
Aaron Nordberg,Finland,M,2002,Juniors,120,113.54,217.5,232.5,237.5,237.5,167.5,177.5,185,185,255,275,277.5,277.5,700,14,SBD,Raw,
Mani Helgason,Iceland,M,2002,Juniors,83,82.46,210,225,230,230,147.5,155,-160,155,250,267.5,277.5,277.5,662.5,18,SBD,Raw,
Heath Graham,New Zealand,M,2002,Juniors,105,104.82,280,292.5,-297.5,292.5,-185,185,192.5,192.5,297.5,307.5,315,315,800,6,SBD,Raw,
Pablo Sánchez Urriza,Spain,M,2002,Juniors,83,83,245,260,262.5,262.5,130,137.5,-140,137.5,300,317.5,332.5,332.5,732.5,7,SBD,Raw,
Kasimir Portin,Finland,M,2002,Juniors,93,89.66,205,215,225,225,140,150,155,155,245,260,-270,260,640,24,SBD,Raw,
Alex Sydor,USA,M,2002,Juniors,83,83,255,270,282.5,282.5,150,157.5,-162.5,157.5,287.5,-302.5,-305,287.5,727.5,9,SBD,Raw,
Vlad Trif,Romania,M,2002,Juniors,105,104.9,250,262.5,-270,262.5,140,150,-152.5,150,270,280,-287.5,280,692.5,19,SBD,Raw,
Andrei Georgescu,Romania,M,2002,Juniors,53,52.55,140,145,147.5,147.5,87.5,92.5,95,95,190,192.5,-202.5,192.5,435,2,SBD,Raw,
Killian Valette,France,M,2002,Juniors,53,52.5,160,167.5,-170,167.5,100,105,,105,180,190,200,200,472.5,1,SBD,Raw,
Bodie LaCoe,USA,M,2003,Juniors,59,57.5,172.5,182.5,187.5,187.5,105,107.5,-110,107.5,250,-265,-265,250,545,3,SBD,Raw,
Vadim Vostrov,Kazakhstan,M,2003,Juniors,83,82,-230,-230,230,230,155,-162.5,162.5,162.5,-255,255,-267.5,255,647.5,23,SBD,Raw,
Nigel Ng,Singapore,M,2003,Juniors,83,82.46,230,245,255,255,160,167.5,-170,167.5,260,275,287.5,287.5,710,11,SBD,Raw,
Alexei Laurenz Agabon,Philippines,M,2003,Juniors,59,58.36,182.5,-192.5,-195,182.5,110,-112.5,-112.5,110,242.5,-255,-255,242.5,535,4,SBD,Raw,
Olivér Susa,Hungary,M,2004,Juniors,105,102.52,255,270,285,285,200,210,215,215,250,270,290,290,790,9,SBD,Raw,
Zachariah Cummings,New Zealand,M,2004,Juniors,83,82.66,235,245,252.5,252.5,140,-145,145,145,245,257.5,265,265,662.5,19,SBD,Raw,
Mostafa Zahran,Egypt,M,2004,Juniors,93,92.62,212.5,217.5,-230,217.5,135,137.5,-140,137.5,222.5,237.5,245,245,600,27,SBD,Raw,
Kenji Borremans,Belgium,M,2005,Sub-Juniors,93,92.8,225,235,-240,235,157.5,-162.5,-162.5,157.5,235,-247.5,-247.5,235,627.5,8,SBD,Raw,
Julius Lankila,Finland,M,2005,Sub-Juniors,83,82.58,-230,230,237.5,237.5,147.5,-155,-155,147.5,280,-300.5,-313,280,665,5,SBD,Raw,
Nicolas Gaines,USA,M,2005,Sub-Juniors,74,73.64,217.5,230,240.5,240.5,130,137.5,142.5,142.5,265,-273,273,273,656,1,SBD,Raw,
Ville Hannula,Finland,M,2005,Sub-Juniors,93,92.12,227.5,237.5,245,245,120,130,137.5,137.5,240,257.5,262.5,262.5,645,5,SBD,Raw,
Tamás Lakó,Hungary,M,2005,Sub-Juniors,93,91.4,215,227.5,237.5,237.5,140,147.5,152.5,152.5,235,-247.5,252.5,252.5,642.5,6,SBD,Raw,
Zayd Ghanawi,Australia,M,2005,Sub-Juniors,93,92.32,202.5,215,225,225,117.5,127.5,132.5,132.5,227.5,242.5,-245,242.5,600,11,SBD,Raw,
Liam Malone,Ireland,M,2005,Sub-Juniors,83,80.76,195,210,220,220,120,127.5,-132.5,127.5,237.5,-250,-252.5,237.5,585,13,SBD,Raw,
Thomas Scanlon,New Zealand,M,2005,Sub-Juniors,83,80.76,232.5,245,252.5,252.5,152.5,157.5,160,160,272.5,-285,285,285,697.5,1,SBD,Raw,
Bryan Magbetha,Belgium,M,2005,Sub-Juniors,93,92.76,215,222.5,225,225,150,-157.5,157.5,157.5,265,275,-282.5,275,657.5,4,SBD,Raw,
Abdusalam Altalb,Libya,M,2005,Sub-Juniors,66,65.98,200,212.5,-226,212.5,112.5,115,-117.5,115,220,232.5,-240,232.5,560,5,SBD,Raw,
Martin Brester,Germany,M,2005,Sub-Juniors,93,92.84,270,280,283.5,283.5,155,162.5,-170,162.5,280,295,300,300,746,2,SBD,Raw,
Jordi van Heijningen,Netherlands,M,2005,Sub-Juniors,93,92.96,265,283,288,288,172.5,180,185,185,280,292.5,300,300,773,1,SBD,Raw,
Anders Nguyen,Sweden,M,2005,Sub-Juniors,66,65.96,215,-220.5,222.5,222.5,120,125,130,130,215,225,-235,225,577.5,3,SBD,Raw,
Joseph Tyler,USA,M,2005,Sub-Juniors,83,82.72,232.5,237.5,242.5,242.5,135,140,145,145,265,275,287.5,287.5,675,2,SBD,Raw,
Caleb Campbell,New Zealand,M,2005,Sub-Juniors,74,72.94,185,195,-200,195,75,80,82.5,82.5,225,232.5,-240,232.5,510,18,SBD,Raw,
Kohei Hoshino,Japan,M,2005,Sub-Juniors,59,57.72,192.5,-200.5,-200.5,192.5,92.5,-97.5,97.5,97.5,210,-220,222.5,222.5,512.5,1,SBD,Raw,
Nikki Goh,Singapore,M,2005,Sub-Juniors,74,73.22,180,190,-195,190,107.5,112.5,115,115,237.5,245,-250,245,550,14,SBD,Raw,
Joshua Tan,Singapore,M,2005,Sub-Juniors,66,64.96,175,185,-192.5,185,112.5,117.5,-122.5,117.5,215,-227.5,-227.5,215,517.5,8,SBD,Raw,
Romeo Fernandez,Mexico,M,2005,Sub-Juniors,120,111.24,202.5,217.5,225,225,112.5,-120,120,120,-225,235,245,245,590,6,SBD,Raw,
Louis Audibert,Thailand,M,2005,Sub-Juniors,93,92.3,190,200,207.5,207.5,115,120,125,125,230,242.5,250,250,582.5,15,SBD,Raw,
Jacob Breckinridge,USA,M,2005,Sub-Juniors,120,117.02,250,275,290,290,140,145,150,150,255,275,-285,275,715,4,SBD,Raw,
Cristian Verdugo Beltran,Spain,M,2005,Sub-Juniors,66,65.46,195,-202.5,-202.5,195,120,-125,-125,120,220,-235,-235,220,535,6,SBD,Raw,
Daniel Hubert,Hungary,M,2005,Sub-Juniors,74,71.74,210,217.5,222.5,222.5,110,115,120,120,240,250,260,260,602.5,5,SBD,Raw,
Mario Magro,Belgium,M,2005,Sub-Juniors,66,65.98,205,215,-222.5,215,107.5,115,120,120,230,245,250,250,585,2,SBD,Raw,
Miguel Angel Ruiz Miranda,Spain,M,2005,Sub-Juniors,74,73.18,-185,185,-200,185,125,130,-132.5,130,210,222.5,227.5,227.5,542.5,15,SBD,Raw,
Erik Němec,Czechia,M,2005,Sub-Juniors,83,82.26,195,210,-220,210,115,-122.5,-122.5,115,-275,-275,-275,,,DQ,SBD,Raw,
Taiki Okuda,Japan,M,2005,Sub-Juniors,83,79.72,-175,185,-190,185,110,-120,120,120,190,-205,-207.5,190,495,17,SBD,Raw,
Otto Sjuls,Finland,M,2005,Sub-Juniors,83,79.54,220,230,-235,230,150,-162.5,-162.5,150,220,227.5,230,230,610,11,SBD,Raw,
John Endoso,UAE,M,2005,Sub-Juniors,105,104.86,287.5,301.5,311,311,157.5,167.5,175,175,-257.5,262.5,280,280,766,2,SBD,Raw,
Alex Storness-Bliss,Canada,M,2005,Sub-Juniors,93,92.7,192.5,202.5,-210,202.5,87.5,97.5,-100,97.5,210,220,230,230,530,16,SBD,Raw,
Kaito Kanzaki,Japan,M,2005,Sub-Juniors,74,73.16,195,207.5,-215,207.5,100,107.5,-115,107.5,205,225,-227.5,225,540,16,SBD,Raw,
Reinhard Rebane,Estonia,M,2005,Sub-Juniors,120,110.26,260,272.5,280,280,145,152.5,,152.5,305,321,-325,321,753.5,3,SBD,Raw,
Matthew Caharop,Philippines,M,2005,Sub-Juniors,59,58.82,157.5,-167.5,167.5,167.5,90,92.5,95,95,215,222.5,225,225,487.5,3,SBD,Raw,
Jesse Miettinen,Finland,M,2005,Sub-Juniors,120+,152.5,235,255,265,265,-120,120,132.5,132.5,190,-200,-200,190,587.5,4,SBD,Raw,
Adam Zatloukal,Czechia,M,2005,Sub-Juniors,93,92.62,235,247.5,257.5,257.5,122.5,130,132.5,132.5,250,262.5,272.5,272.5,662.5,3,SBD,Raw,
Mathéo Duvernet,France,M,2005,Sub-Juniors,66,65.36,190,197.5,200,200,110,-115,115,115,232.5,245,256.5,256.5,571.5,4,SBD,Raw,
Saleh Hamami,Hungary,M,2005,Sub-Juniors,93,91.4,172.5,185,192.5,192.5,110,112.5,115,115,200,212.5,-227.5,212.5,520,17,SBD,Raw,
Julen Fajardo Solana,Spain,M,2005,Sub-Juniors,74,72.3,195,202.5,212.5,212.5,132.5,137.5,-142.5,137.5,225,-237.5,-237.5,225,575,7,SBD,Raw,
Cian Lynch,Ireland,M,2005,Sub-Juniors,74,73.22,180,190,-195,190,112.5,115,117.5,117.5,247.5,260,265,265,572.5,8,SBD,Raw,
Matthew Lee,Singapore,M,2005,Sub-Juniors,66,64.06,145,152.5,157.5,157.5,87.5,95,-100,95,-165,170,180,180,432.5,13,SBD,Raw,
Benjamin Alvarado Campos,Chile,M,2005,Sub-Juniors,74,72.58,195,-205,205,205,105,110,112.5,112.5,250,-265,-265,250,567.5,9,SBD,Raw,
Hamza Demir,Austria,M,2005,Sub-Juniors,105,104.9,275,301,-310.5,301,195,205,-214.5,205,315,330.5,-357.5,330.5,836.5,1,SBD,Raw,
James Kellerman,USA,M,2005,Sub-Juniors,105,102.78,-252.5,252.5,260,260,167.5,172.5,175,175,235,247.5,-252.5,247.5,682.5,3,SBD,Raw,
Max Louw,New Zealand,M,2005,Sub-Juniors,83,82.6,217.5,230,-232.5,230,120,125,127.5,127.5,250,265,272.5,272.5,630,6,SBD,Raw,
Matěj Neuman,Czechia,M,2005,Sub-Juniors,59,58.84,140,150,155,155,90,-100,-100,90,170,182.5,192.5,192.5,437.5,8,SBD,Raw,
Ollie Bubb,New Zealand,M,2005,Sub-Juniors,74,72.64,160,167.5,172.5,172.5,100,105,110,110,215,225,-230,225,507.5,19,SBD,Raw,
Hayato Okabe,Japan,M,2005,Sub-Juniors,59,58.36,170,-180,-180,170,85,92.5,-95,92.5,175,185,-200,185,447.5,5,SBD,Raw,
Trevor Klein,USA,M,2006,Sub-Juniors,120,115.3,260,-267.5,-267.5,260,192.5,-200,200,200,227.5,242.5,250,250,710,5,SBD,Raw,
Kotaro Harada,Japan,M,2006,Sub-Juniors,93,91.46,202.5,215,-220,215,127.5,135,137.5,137.5,212.5,227.5,240,240,592.5,12,SBD,Raw,
Dániel Sajben,Hungary,M,2006,Sub-Juniors,59,58.28,135,145,-150,145,85,90,95,95,162.5,172.5,177.5,177.5,417.5,9,SBD,Raw,
Shogen Iizuka,Japan,M,2006,Sub-Juniors,93,91.9,-222.5,-222.5,-222.5,,,,,,,,,,,DQ,SBD,Raw,
Marek Mokroluský,Czechia,M,2006,Sub-Juniors,83,74.2,205,215,222.5,222.5,110,120,127.5,127.5,235,250,-255,250,600,12,SBD,Raw,
Derrick Le,USA,M,2006,Sub-Juniors,53,52.8,115,-125,-125,115,80,85,87.5,87.5,145,-152.5,-152.5,145,347.5,7,SBD,Raw,
Taizo Kondo,Japan,M,2006,Sub-Juniors,66,65.1,160,167.5,-170,167.5,80,87.5,-92.5,87.5,165,-172.5,172.5,172.5,427.5,14,SBD,Raw,
Pavel Benda,Czechia,M,2006,Sub-Juniors,120,118.7,240,255,-265,255,180,-190,190,190,280,300,310,310,755,2,SBD,Raw,
Ko Kamba,Japan,M,2006,Sub-Juniors,66,65.54,125,135,140,140,75,-80,,75,190,197.5,205,205,420,15,SBD,Raw,
Aidan Wells,UK,M,2006,Sub-Juniors,74,72.18,200,210,-217.5,210,105,110,115,115,220,230,237.5,237.5,562.5,10,SBD,Raw,
Liam Biström,Finland,M,2006,Sub-Juniors,93,92.16,190,200,205,205,135,-142.5,-142.5,135,245,250,260,260,600,10,SBD,Raw,
Naoto Ouchi,Japan,M,2006,Sub-Juniors,120,116.4,175,190,207.5,207.5,90,105,-107.5,105,170,190,-195,190,502.5,7,SBD,Raw,
Ethan Nel,South Africa,M,2006,Sub-Juniors,83,80.44,120,135,-142.5,135,105,112.5,117.5,117.5,170,190,-200,190,442.5,19,SBD,Raw,
Romeo Narain Hunter,Guyana,M,2006,Sub-Juniors,83,77.44,255,-265,265,265,-162.5,-162.5,-162.5,,225,235,-242.5,235,,DQ,SBD,Raw,
Praneel Maheswaran,India,M,2006,Sub-Juniors,74,73.3,165,177.5,-190,177.5,90,97.5,-102.5,97.5,200,215,-220,215,490,20,SBD,Raw,
Daniel Harris #1,USA,M,2006,Sub-Juniors,66,65.16,217.5,225,230.5,230.5,130,137.5,140,140,225,235,-240,235,605.5,1,SBD,Raw,
Viljami Javanainen,Finland,M,2006,Sub-Juniors,74,72.9,185,-192.5,192.5,192.5,117.5,125,130,130,195,-210,-210,195,517.5,17,SBD,Raw,
Cameron Bezuidenhout,South Africa,M,2006,Sub-Juniors,83,81.56,175,-182.5,182.5,182.5,85,-92.5,-92.5,85,185,195,-200,195,462.5,18,SBD,Raw,
Alfie Bonsell,UK,M,2007,Sub-Juniors,59,57.58,160,172.5,175,175,95,102.5,105,105,185,197.5,-205,197.5,477.5,4,SBD,Raw,
Samuel Teeger,South Africa,M,2007,Sub-Juniors,66,65.66,155,-162.5,162.5,162.5,100,105,107.5,107.5,210,215,220,220,490,11,SBD,Raw,
Jack Reynolds,USA,M,2007,Sub-Juniors,74,72.26,205,215,220,220,150,155,160,160,-245,-245,245,245,625,3,SBD,Raw,
Gavin Maag,USA,M,2007,Sub-Juniors,53,52.8,130,132.5,-137.5,132.5,60,65,70,70,142.5,147.5,152.5,152.5,355,6,SBD,Raw,
Odysseas Markou,Greece,M,2007,Sub-Juniors,120+,124.1,217.5,227.5,-235,227.5,137.5,142.5,145,145,240,250,255,255,627.5,3,SBD,Raw,
Konsta Holappa,Finland,M,2007,Sub-Juniors,66,65.64,162.5,172.5,180,180,100,107.5,110,110,180,190,200,200,490,10,SBD,Raw,
Abel Szekeres,Hungary,M,2008,Sub-Juniors,120+,142.9,160,175,180,180,112.5,117.5,-125,117.5,195,210,222.5,222.5,520,5,SBD,Raw,
Lauri Lindberg,Finland,M,2008,Sub-Juniors,53,53,130,140,-147.5,140,85,92.5,-95,92.5,150,170,177.5,177.5,410,3,SBD,Raw,
Witcha Jitsajjapong,Thailand,M,2008,Sub-Juniors,83,81.48,160,170,175,175,97.5,102.5,107.5,107.5,220,-230,-230,220,502.5,16,SBD,Raw,
Daniel Meleiro Llombart,Spain,M,2000,Juniors,120,115.76,275,290,302.5,302.5,152.5,160,165,165,282.5,297.5,-310,297.5,765,12,SBD,Raw,
Jérémy Vallerand,Canada,M,2000,Juniors,120,119.1,310,325,340,340,175,-187.5,187.5,187.5,307.5,325,-342.5,325,852.5,6,SBD,Raw,
Riccardo Montanelli Eccher,Italy,M,2000,Juniors,105,104.46,280,297.5,307.5,307.5,162.5,170,172.5,172.5,295,315,-327.5,315,795,7,SBD,Raw,
Michael Barsoom,Egypt,M,2000,Juniors,120,118.44,270,-295,300,300,190,200,205,205,280,300,-310,300,805,10,SBD,Raw,
Souleiman Turki,France,M,2000,Juniors,83,82.8,260,272.5,282.5,282.5,162.5,167.5,-170,167.5,-297.5,310,315,315,765,1,SBD,Raw,
Nathan Gevao,UK,M,2000,Juniors,93,92.62,270,287.5,295,295,175,182.5,-187.5,182.5,-305,325,332.5,332.5,810,1,SBD,Raw,
Jake Edralin,Canada,M,2000,Juniors,59,57.88,160,175,-182.5,175,105,115,-122.5,115,210,222.5,-230,222.5,512.5,7,SBD,Raw,
Enrico Pravato,Italy,M,2000,Juniors,93,92.92,257.5,-270,-270,257.5,160,167.5,172.5,172.5,280,297.5,-310,297.5,727.5,17,SBD,Raw,
Dominic Tyrrell,Guyana,M,2000,Juniors,74,73.34,-227.5,227.5,-232.5,227.5,127.5,135,140,140,300,-302.5,-310,300,667.5,10,SBD,Raw,
Max Mansell-Rowe,UK,M,2000,Juniors,83,82.24,235,247.5,255,255,145,152.5,157.5,157.5,305,320,-335,320,732.5,4,SBD,Raw,
Matteo Marzolla,Italy,M,2000,Juniors,105,103,285,-305,305,305,170,175,-177.5,175,305,-325,330,330,810,5,SBD,Raw,
Hasan Köse,Turkey,M,2000,Juniors,83,80.85,222.5,232.5,240,240,127.5,132.5,-137.5,132.5,237.5,-252.5,255,255,627.5,26,SBD,Raw,
Lewis Kelly,UK,M,2000,Juniors,120,118.54,270,287.5,-300,287.5,-172.5,177.5,182.5,182.5,290,310,-320,310,780,11,SBD,Raw,
Johnathan Asselstine,Canada,M,2000,Juniors,93,92.04,255,265,270,270,175,-180,180,180,280,300,-317.5,300,750,14,SBD,Raw,
Shoya Kaneko,Japan,M,2000,Juniors,93,92.44,220,232.5,-242.5,232.5,145,152.5,-157.5,152.5,225,250,-275,250,635,26,SBD,Raw,
Fahad Alrefai,Kuwait,M,2000,Juniors,53,52.5,147.5,-155,-155,147.5,87.5,-92.5,-92.5,87.5,165,180,-192.5,180,415,3,SBD,Raw,
Dario Milicia,Italy,M,2001,Juniors,74,73.58,250,-257.5,-257.5,250,155,162.5,-165,162.5,275,-287.5,-290,275,687.5,6,SBD,Raw,
James Emmanuel Sy,Philippines,M,2001,Juniors,74,73.46,227.5,-230,,227.5,125,-130,130,130,282.5,290,-300,290,647.5,13,SBD,Raw,
Hermann Charbonnier,France,M,2001,Juniors,59,58.26,180,190,-192.5,190,115,122.5,-125,122.5,190,200,207.5,207.5,520,5,SBD,Raw,
Valerio Nunziata,Italy,M,2001,Juniors,66,65.32,185,195,202.5,202.5,142.5,145,-147.5,145,245,257.5,-270,257.5,605,7,SBD,Raw,
Thomas Bouyer,France,M,2001,Juniors,74,73.76,235,-245,245,245,157.5,165,170,170,275,285,-290,285,700,3,SBD,Raw,
Ricardo Palacios,Mexico,M,2001,Juniors,93,91.26,245,257.5,265,265,-147.5,147.5,-152.5,147.5,280,295,-300,295,707.5,19,SBD,Raw,
Charlie Kidd,UK,M,2001,Juniors,105,101.54,270,280,285,285,155,-162.5,162.5,162.5,285,297.5,310,310,757.5,13,SBD,Raw,
Sammy Aboagye-Kodjoe,UK,M,2001,Juniors,66,65.84,210,220,227.5,227.5,122.5,127.5,132.5,132.5,245,257.5,272.5,272.5,632.5,5,SBD,Raw,
Mustafa John Altintas,Turkey,M,2001,Juniors,93,92.36,250,260,267.5,267.5,160,170,-172.5,170,240,-250,-250,240,677.5,23,SBD,Raw,
Ion Calmic,Ireland,M,2001,Juniors,93,92.5,275,290,-295,290,175,180,-185,180,305,-317.5,322.5,322.5,792.5,5,SBD,Raw,
Benedict Grant,UK,M,2001,Juniors,66,65.84,205,220,225,225,130,137.5,-142.5,137.5,225,240,-250,240,602.5,9,SBD,Raw,
Kian Terrado,Canada,M,2001,Juniors,74,73.34,240,-255,-255,240,145,-150,150,150,275,-290,-300,275,665,11,SBD,Raw,
Aren Joy Fernandes,India,M,2001,Juniors,74,73.76,230,-242.5,-242.5,230,140,145,147.5,147.5,290,310,-325,310,687.5,7,SBD,Raw,
Andrea Orlandi #1,Italy,M,2001,Juniors,83,82.72,-267.5,277.5,-285,277.5,180,195,200,200,270,280,285,285,762.5,2,SBD,Raw,
Joey Awala,UK,M,2002,Juniors,83,82.15,242.5,255,262.5,262.5,157.5,165,170,170,295,-320,-332.5,295,727.5,8,SBD,Raw,
Tristan Ho,Singapore,M,2002,Juniors,66,65.54,215,225,230,230,150,155,160,160,240,-252.5,252.5,252.5,642.5,3,SBD,Raw,
Thomas Johnston #5,Canada,M,2002,Juniors,105,104.82,285,292.5,-295,292.5,155,162.5,-165,162.5,320,337.5,-345,337.5,792.5,8,SBD,Raw,
Alvar Helgason,Iceland,M,2002,Juniors,105,101.92,220,240,250,250,150,160,167.5,167.5,220,237.5,250,250,667.5,20,SBD,Raw,
Davi Cardoso Gomes,Brazil,M,2002,Juniors,120,119.48,310,-322.5,322.5,322.5,162.5,-170,170,170,305,320,-332.5,320,812.5,9,SBD,Raw,
Nathaniel Massiah,UK,M,2002,Juniors,93,92.14,265,277.5,287.5,287.5,-170,175,-180,175,310,-330,340,340,802.5,3,SBD,Raw,
Matthew Foley-Lewis,Australia,M,2003,Juniors,105,104.86,247.5,265,-270,265,165,172.5,177.5,177.5,-285,305,-320,305,747.5,14,SBD,Raw,
Batuhan Tecimen,Turkey,M,2003,Juniors,74,73.42,190,-200,200,200,140,150,-155,150,210,225,235,235,585,18,SBD,Raw,
Ali Alshavi,Turkey,M,2003,Juniors,66,63.1,162.5,175,185,185,95,102.5,-107.5,102.5,205,217.5,230,230,517.5,12,SBD,Raw,
Mehmet Bora Merİç,Turkey,M,2003,Juniors,105,103.2,175,185,195,195,135,142.5,-147.5,142.5,225,240,245,245,582.5,22,SBD,Raw,
Luca Umberto Angrisano,Italy,M,2003,Juniors,93,92.34,255,270,277.5,277.5,157.5,162.5,-167.5,162.5,307.5,-320,320,320,760,12,SBD,Raw,
Bader Abul,Kuwait,M,2003,Juniors,74,71.8,200,207.5,212.5,212.5,137.5,142.5,145,145,-245,245,252.5,252.5,610,17,SBD,Raw,
João Guilherme Castellain,Brazil,M,2004,Juniors,66,60.2,155,162.5,-167.5,162.5,90,97.5,102.5,102.5,162.5,170,177.5,177.5,442.5,14,SBD,Raw,
Brandon Teh,UK,M,2004,Juniors,74,72.26,215,230,240,240,137.5,145,150,150,250,265,272.5,272.5,662.5,12,SBD,Raw,
Ibrahim Sandogji,Saudi Arabia,M,2004,Juniors,59,58.76,162.5,175,-177.5,175,115,122.5,-125,122.5,220,-225,-225,220,517.5,6,SBD,Raw,
Malik Bernoussi Triolet,France,M,2004,Juniors,93,92.62,275,285,292.5,292.5,205,215.5,220.5,220.5,295,-307.5,-307.5,295,808,2,SBD,Raw,
Mert Alİ Altuntaş,Turkey,M,2004,Juniors,120+,124.16,225,240,250,250,125,-135,-135,125,275,290,300,300,675,7,SBD,Raw,
Gabriel Cassaniga,Brazil,M,2004,Juniors,120,116.2,235,245,252.5,252.5,147.5,155,160,160,250,265,-275,265,677.5,15,SBD,Raw,
Alessandro Pastorello,Italy,M,2004,Juniors,74,73.64,245,255,-260,255,140,145,150,150,265,280,285,285,690,5,SBD,Raw,
Maciej Sławski,Poland,M,2005,Sub-Juniors,105,103.82,240,245,250,250,142.5,147.5,152.5,152.5,245,250,252.5,252.5,655,6,SBD,Raw,
Sergio Moura,Brazil,M,2005,Sub-Juniors,66,64.6,155,165,-170,165,97.5,105,110,110,187.5,202.5,-205,202.5,477.5,12,SBD,Raw,
Filip Gardian,Slovakia,M,2005,Sub-Juniors,83,82.56,220,-230,-230,220,140,-145,-145,140,260,-275,-275,260,620,8,SBD,Raw,
Samuel Cohen #1,France,M,2005,Sub-Juniors,74,73.38,207.5,217.5,222.5,222.5,147.5,-157.5,157.5,157.5,242.5,255,-262.5,255,635,2,SBD,Raw,
Musab Alessa,Saudi Arabia,M,2005,Sub-Juniors,93,92.8,235,250,-257.5,250,125,-130,130,130,250,262.5,-280,262.5,642.5,7,SBD,Raw,
Gyan Patni,India,M,2005,Sub-Juniors,120+,157.3,255,-265,-265,255,122.5,-130,130,130,232.5,247.5,-257.5,247.5,632.5,2,SBD,Raw,
Pedro Hernandez,Mexico,M,2005,Sub-Juniors,93,91.9,212.5,220,227.5,227.5,110,117.5,122.5,122.5,215,225,240,240,590,13,SBD,Raw,
Nonso Chinye,UK,M,2005,Sub-Juniors,120,117.28,-275,295,308.5,308.5,167.5,175,182.5,182.5,320.5,343,360.5,360.5,851.5,1,SBD,Raw,
Joshua Ngoka,UK,M,2005,Sub-Juniors,120+,150.1,280,-307.5,307.5,307.5,160,167.5,172.5,172.5,301,311,320,320,800,1,SBD,Raw,
İsmaİl Can Aydos,Turkey,M,2005,Sub-Juniors,83,80.42,165,180,187.5,187.5,95,105,112.5,112.5,180,195,205,205,505,15,SBD,Raw,
Wael Amor,Turkey,M,2005,Sub-Juniors,74,73.5,-195,195,-207.5,195,112.5,117.5,122.5,122.5,225,237.5,-245,237.5,555,12,SBD,Raw,
Selahattİn Akgün,Turkey,M,2005,Sub-Juniors,66,65.06,165,175,182.5,182.5,105,-112.5,115,115,222.5,-232.5,-235,222.5,520,7,SBD,Raw,
Carlo Vizza,Italy,M,2005,Sub-Juniors,59,58.96,130,140,150,150,110,-120,120,120,165,175,-180,175,445,6,SBD,Raw,
Andria Mikautadze,Georgia,M,2005,Sub-Juniors,53,50.2,120,127.5,-130,127.5,90,-95,-95,90,170,-177.5,-177.5,170,387.5,5,SBD,Raw,
Branislav Vanga,Slovakia,M,2005,Sub-Juniors,105,101.84,215,227.5,232.5,232.5,150,160,162.5,162.5,270,275,-287.5,275,670,4,SBD,Raw,
Mohammed Alzahid,Saudi Arabia,M,2005,Sub-Juniors,53,52.9,127.5,137.5,-140,137.5,87.5,92.5,95,95,162.5,172.5,-175,172.5,405,4,SBD,Raw,
Lucas Williams,UK,M,2005,Sub-Juniors,83,82.36,220,232.5,242.5,242.5,135,142.5,147.5,147.5,260,275,282.5,282.5,672.5,3,SBD,Raw,
Sam Read,UK,M,2005,Sub-Juniors,83,81.96,215,222.5,230,230,135,140,142.5,142.5,240,255,-265,255,627.5,7,SBD,Raw,
Joaquin Osorio,Mexico,M,2005,Sub-Juniors,93,92.46,230,240,-242.5,240,117.5,120,,120,225,-235,-235,225,585,14,SBD,Raw,
Fabrizio Di Felice,Italy,M,2005,Sub-Juniors,83,82.52,245,252.5,257.5,257.5,142.5,147.5,-152.5,147.5,245,260,-270,260,665,4,SBD,Raw,
James Murphy,Ireland,M,2005,Sub-Juniors,93,89.92,180,195,-210,195,130,132.5,135,135,250,270,282.5,282.5,612.5,9,SBD,Raw,
Wei-Chen Huang,Taiwan,M,2005,Sub-Juniors,59,58.12,172.5,180,185,185,95,100,102.5,102.5,205,215,-227.5,215,502.5,2,SBD,Raw,
Filip Kral,Slovakia,M,2005,Sub-Juniors,83,82.42,195,-207.5,-207.5,195,110,115,-117.5,115,235,250,-260,250,560,14,SBD,Raw,
Ali Kaan Ekdi,Turkey,M,2005,Sub-Juniors,59,57.84,125,135,142.5,142.5,95,100,-102.5,100,180,195,-202.5,195,437.5,7,SBD,Raw,
Fahad Alghenaim,Bahrain,M,2005,Sub-Juniors,59,58.7,-160,-160,-165,,-97.5,97.5,-105,97.5,220,-227.5,-227.5,220,,DQ,SBD,Raw,
Max Pearson,UK,M,2005,Sub-Juniors,74,73.42,195,205,210,210,120,127.5,130,130,230,245,-255,245,585,6,SBD,Raw,
Faruk Tuna Özcan,Turkey,M,2005,Sub-Juniors,53,52.3,125,132.5,137.5,137.5,87.5,92.5,-97.5,92.5,-165,165,180,180,410,2,SBD,Raw,
Dario Dore,Italy,M,2005,Sub-Juniors,74,73.5,205,215,222.5,222.5,132.5,137.5,140,140,235,250,-265,250,612.5,4,SBD,Raw,
Giorgi Gelashvili,Georgia,M,2006,Sub-Juniors,53,51.5,130,137.5,142.5,142.5,100,107.5,110,110,155,165,170,170,422.5,1,SBD,Raw,
Luc Dahlman,Canada,M,2006,Sub-Juniors,83,78.82,200,210,217.5,217.5,140,145,-150,145,240,252.5,-260,252.5,615,10,SBD,Raw,
Finn O'Farrell,UK,M,2006,Sub-Juniors,105,104.92,250,260,262.5,262.5,127.5,135,140,140,230,245,255,255,657.5,5,SBD,Raw,
Kaushal Gupta,India,M,2006,Sub-Juniors,83,81.4,190,-202.5,202.5,202.5,150,160,-165,160,240,255,-265,255,617.5,9,SBD,Raw,
Roger Kong,Canada,M,2006,Sub-Juniors,74,71.82,177.5,187.5,195,195,125,135,140,140,195,205,215,215,550,13,SBD,Raw,
Dorje Weston,UK,M,2006,Sub-Juniors,66,65.9,182.5,-192.5,-192.5,182.5,132.5,137.5,142.5,142.5,180,190,-195,190,515,9,SBD,Raw,
Nikolai Galabov,Bulgaria,M,2007,Sub-Juniors,74,71.76,172.5,182.5,192.5,192.5,120,-132.5,132.5,132.5,202.5,217.5,235,235,560,11,SBD,Raw,
