Place,Name,Sex,BirthYear,BirthDate,Age,Country,State,Equipment,Division,BodyweightKg,WeightClassKg,Squat1Kg,Squat2Kg,Squat3Kg,Best3SquatKg,Bench1Kg,Bench2Kg,Bench3Kg,Best3BenchKg,Deadlift1Kg,Deadlift2Kg,Deadlift3Kg,Best3DeadliftKg,TotalKg,Event
1,Gwen Marsden,F,2004,,18,,,Raw,FR-O,44.7,47,95,-100,102.5,102.5,55,-57.5,57.5,57.5,117.5,122.5,127.5,127.5,287.5,SBD
1,Emily Caton,F,2000,,22,,,Raw,FR-O,50.9,52,102.5,107.5,112.5,112.5,55,57.5,-60,57.5,122.5,130,135,135,305,SBD
2,Long Kiu Tse,F,2004,,18,,,Raw,FR-O,51.1,52,90,95,100,100,62.5,65,67.5,67.5,130,137.5,-140,137.5,305,SBD
3,Ruth Fowles,F,2001,,21,,,Raw,FR-O,51.4,52,87.5,92.5,97.5,97.5,57.5,62.5,65,65,117.5,127.5,135,135,297.5,SBD
4,Jolie Liew,F,2000,,23,,,Raw,FR-O,49.4,52,97.5,102.5,-107.5,102.5,57.5,60,62.5,62.5,122.5,130,-137.5,130,295,SBD
5,Victoria Li,F,2000,,22,,,Raw,FR-O,51,52,90,95,100,100,52.5,55,57.5,57.5,122.5,132.5,-140,132.5,290,SBD
6,Mia Wannop,F,2001,,21,,,Raw,FR-O,51.2,52,102.5,-110,110,110,42.5,45,-47.5,45,112.5,120,125,125,280,SBD
7,Niamh Mulley,F,2001,,21,,,Raw,FR-O,51.2,52,85,92.5,-97.5,92.5,50,52.5,-55,52.5,125,132.5,135,135,280,SBD
8,Alice Spiers,F,1996,,27,,,Raw,FR-O,51.6,52,92.5,97.5,100,100,47.5,-50,50,50,120,127.5,-135,127.5,277.5,SBD
9,Rebecca Nicholls,F,2001,,21,,,Raw,FR-O,51.8,52,92.5,97.5,-102.5,97.5,42.5,-47.5,-47.5,42.5,117.5,120,127.5,127.5,267.5,SBD
10,Deedee Hu,F,2000,,22,,,Raw,FR-O,50.8,52,87.5,95,100,100,50,55,-57.5,55,102.5,107.5,110,110,265,SBD
11,Kirsty Russell,F,1998,,24,,,Raw,FR-O,51.5,52,82.5,90,-97.5,90,55,60,-62.5,60,95,102.5,-105,102.5,252.5,SBD
DQ,Sophie Hadjineophytou,F,2003,,20,,,Raw,FR-O,50.7,52,-100,-100,-100,,57.5,-60,-60,57.5,137.5,-140,-145,137.5,,SBD
DQ,Jodi Kay,F,2004,,18,,,Raw,FR-O,51.1,52,-92.5,-100,-100,,52.5,-57.5,57.5,57.5,110,120,125,125,,SBD
1,Amelia Fox #1,F,2002,,20,,,Raw,FR-O,56.3,57,-127.5,127.5,137.5,137.5,60,65,67.5,67.5,165,177.5,188,188,393,SBD
2,Anna Clay,F,1996,,26,,,Raw,FR-O,55.4,57,125,130,132.5,132.5,65,70,72.5,72.5,145,155,-160,155,360,SBD
3,Rona Hitchins,F,2002,,21,,,Raw,FR-O,56.6,57,107.5,112.5,117.5,117.5,52.5,55,-57.5,55,145,152.5,157.5,157.5,330,SBD
4,Katie O'Flaherty,F,2000,,22,,,Raw,FR-O,56.2,57,112.5,117.5,122.5,122.5,60,62.5,-65,62.5,125,135,142.5,142.5,327.5,SBD
5,Diana Huynh,F,2001,,22,,,Raw,FR-O,57,57,-117.5,117.5,127.5,127.5,55,60,-62.5,60,130,137.5,-147.5,137.5,325,SBD
6,Cristiana Sessini,F,1990,,32,,,Raw,FR-O,55.6,57,107.5,115,120,120,70,75,78.5,78.5,115,122.5,-127.5,122.5,321,SBD
7,Katie Trembath,F,2002,,20,,,Raw,FR-O,55.2,57,117.5,122.5,-130,122.5,55,57.5,60,60,125,130,132.5,132.5,315,SBD
8,Miriam Eldon,F,2000,,22,,,Raw,FR-O,55.9,57,105,112.5,120,120,55,-60,-60,55,125,-132.5,132.5,132.5,307.5,SBD
9,Geneva Ponnou,F,2003,,19,,,Raw,FR-O,56.2,57,92.5,102.5,-110,102.5,52.5,57.5,60,60,137.5,145,-150,145,307.5,SBD
10,Amelia Fox #2,F,2002,,20,,,Raw,FR-O,54.9,57,105,112.5,115,115,55,-60,60,60,112.5,120,125,125,300,SBD
11,Clotilde Collonges-Dufouleur,F,2003,,20,,,Raw,FR-O,56.7,57,100,-107.5,110,110,50,55,-57.5,55,125,130,135,135,300,SBD
12,Amy Middlemas,F,2003,,20,,,Raw,FR-O,56.7,57,97.5,102.5,105,105,52.5,55,-57.5,55,127.5,135,-140,135,295,SBD
13,Caitlyn Brinkman-Schwartz,F,1983,,40,,,Raw,FR-O,54.1,57,92.5,97.5,102.5,102.5,50,-55,-55,50,117.5,125,127.5,127.5,280,SBD
14,Marianne Clert,F,2002,,20,,,Raw,FR-O,56.6,57,87.5,95,-100,95,45,50,-52.5,50,115,117.5,122.5,122.5,267.5,SBD
15,Alice Lane,F,2001,,21,,,Raw,FR-O,56.8,57,85,-90,90,90,40,45,-47.5,45,120,127.5,130,130,265,SBD
16,Mia Hankinson,F,2002,,20,,,Raw,FR-O,54.1,57,82.5,87.5,-92.5,87.5,37.5,-40,-40,37.5,120,127.5,132.5,132.5,257.5,SBD
17,Alex Bayne,F,2004,,19,,,Raw,FR-O,52.3,57,90,-95,-97.5,90,47.5,-52.5,-52.5,47.5,110,115,-120,115,252.5,SBD
18,Amelia Hall,F,2003,,20,,,Raw,FR-O,56.1,57,97.5,-105,-105,97.5,40,-45,45,45,100,105,110,110,252.5,SBD
1,Faiad Sharif,M,2002,,20,,,Raw,MR-O,59,59,157.5,162.5,167.5,167.5,95,100,-107.5,100,195,205,-221,205,472.5,SBD
2,Matt Chan,M,2000,,22,,,Raw,MR-O,57.3,59,152.5,160,165,165,87.5,95,-97.5,95,177.5,190,-212.5,190,450,SBD
3,Farhan Hussain,M,2002,,20,,,Raw,MR-O,58.9,59,137.5,150,157.5,157.5,85,90,-92.5,90,165,177.5,187.5,187.5,435,SBD
1,Nathan McDowell,M,2002,,20,,,Raw,MR-O,73.1,74,220,230,238,238,140,-147.5,147.5,147.5,240,250,255,255,640.5,SBD
2,Brandon Teh,M,2000,,22,,,Raw,MR-O,71.1,74,207.5,220,225,225,132.5,140,145,145,235,250,257.5,257.5,627.5,SBD
3,Adam Essex,M,1999,,23,,,Raw,MR-O,73.9,74,210,217.5,220,220,152.5,-157.5,-157.5,152.5,-240,247.5,-252.5,247.5,620,SBD
4,Brendan Teng Guan Wei,M,2002,,20,,,Raw,MR-O,73.5,74,200,212.5,-217.5,212.5,145,152.5,-160.5,152.5,235,245,252.5,252.5,617.5,SBD
5,Conor Eede,M,1999,,23,,,Raw,MR-O,71.1,74,217.5,227.5,235,235,-120,125,-130,125,240,255,-265.5,255,615,SBD
6,Bader Abul,M,2004,,18,,,Raw,MR-O,72.3,74,192.5,-200,200,200,130,-137.5,137.5,137.5,-240,250,-255,250,587.5,SBD
7,Jayesh Utchanah,M,2001,,21,,,Raw,MR-O,72.7,74,190,200,-205,200,120,-127.5,-127.5,120,-235,245,255,255,575,SBD
8,John Razon,M,2005,,17,,,Raw,MR-O,72.1,74,190,200,207.5,207.5,112.5,117.5,120,120,220,232.5,245,245,572.5,SBD
9,Anthony Moszuti,M,2001,,21,,,Raw,MR-O,72.5,74,200,215,222.5,222.5,110,-115,-115,110,220,235,-245,235,567.5,SBD
10,Christian Hitchcock,M,2003,,19,,,Raw,MR-O,71,74,185,-200,200,200,120,-125,127.5,127.5,220,235,-240,235,562.5,SBD
11,Scott Walton,M,2001,,21,,,Raw,MR-O,73.9,74,192.5,200,205,205,130,135,-142.5,135,200,212.5,-215,212.5,552.5,SBD
12,Jai Hindocha,M,2002,,20,,,Raw,MR-O,72.2,74,-167.5,172.5,177.5,177.5,132.5,137.5,142.5,142.5,210,222.5,230,230,550,SBD
13,Ben Wiffen,M,2002,,20,,,Raw,MR-O,72.8,74,170,180,185,185,107.5,115,120,120,222.5,235,245,245,550,SBD
14,Harry Smith,M,2004,,18,,,Raw,MR-O,74,74,182.5,192.5,-200,192.5,142.5,150,-152.5,150,197.5,207.5,-210,207.5,550,SBD
15,Tom Harvey,M,2003,,19,,,Raw,MR-O,72.6,74,165,167.5,180,180,107.5,110,112.5,112.5,235,245,252.5,252.5,545,SBD
16,Cairo Dodd,M,2002,,20,,,Raw,MR-O,73.4,74,177.5,187.5,-190,187.5,130,-135,135,135,195,210,220,220,542.5,SBD
17,George Gammage,M,2002,,20,,,Raw,MR-O,72.6,74,202.5,-212.5,-212.5,202.5,110,-117.5,-117.5,110,215,225,-232.5,225,537.5,SBD
18,Giacomo Misuraca,M,2002,,20,,,Raw,MR-O,71.8,74,190,200,205,205,110,-115,,110,210,217.5,220,220,535,SBD
19,Chin Tung Sean Yau,M,2002,,20,,,Raw,MR-O,73.8,74,187.5,195,200,200,107.5,112.5,-115,112.5,197.5,210,220,220,532.5,SBD
20,Elias Haunolder,M,2001,,21,,,Raw,MR-O,72.2,74,160,170,-175,170,115,120,125,125,235,-252.5,-252.5,235,530,SBD
21,Xander Gowler,M,1999,,23,,,Raw,MR-O,73.2,74,180,187.5,192.5,192.5,115,120,122.5,122.5,190,200,210,210,525,SBD
22,Oliver Butterfield,M,2003,,19,,,Raw,MR-O,72.7,74,155,165,172.5,172.5,135,-142.5,-145,135,197.5,205,212.5,212.5,520,SBD
23,Omar Paymon,M,2004,,18,,,Raw,MR-O,73.8,74,172.5,182.5,-190,182.5,105,110,-112.5,110,215,227.5,-235,227.5,520,SBD
24,Carl Mullet,M,2000,,22,,,Raw,MR-O,72.4,74,160,170,177.5,177.5,97.5,-100,100,100,225,232.5,240,240,517.5,SBD
25,Ashmin Pun,M,2002,,20,,,Raw,MR-O,73.5,74,170,180,-190,180,100,107.5,-112.5,107.5,215,227.5,-235,227.5,515,SBD
26,Darragh Ferguson,M,2002,,20,,,Raw,MR-O,72.6,74,170,180,-185,180,102.5,107.5,-112.5,107.5,210,-222.5,222.5,222.5,510,SBD
27,Daniel Chen,M,2001,,21,,,Raw,MR-O,73.9,74,160,175,182.5,182.5,125,-127.5,-127.5,125,-180,180,200,200,507.5,SBD
28,Alex Tan,M,2003,,19,,,Raw,MR-O,73.3,74,152.5,162.5,170,170,100,107.5,112.5,112.5,200,212.5,220,220,502.5,SBD
29,Harry Price,M,2000,,22,,,Raw,MR-O,73.1,74,140,150,160,160,110,120,-125,120,205,215,-217.5,215,495,SBD
30,Pei Toh Chung,M,2000,,22,,,Raw,MR-O,72.8,74,-155,162.5,167.5,167.5,120,125,-130,125,185,192.5,-197.5,192.5,485,SBD
31,Joe Martin #1,M,2002,,20,,,Raw,MR-O,68.6,74,162.5,172.5,-180,172.5,102.5,110,112.5,112.5,182.5,195,-202.5,195,480,SBD
DQ,Ingram Tan,M,2003,,19,,,Raw,MR-O,,74,,,,,,,,,,,,,,SBD
DQ,Alex Roberts,M,2003,,19,,,Raw,MR-O,,74,,,,,,,,,,,,,,SBD
DQ,Naseem Hoque,M,2002,,20,,,Raw,MR-O,,74,,,,,,,,,,,,,,SBD
DQ,Jamie Jones #4,M,2004,,18,,,Raw,MR-O,,74,,,,,,,,,,,,,,SBD
1,Yasmin Burt,F,2003,,19,,,Raw,FR-O,62.7,63,125,132.5,140,140,85,90,93,93,140,152.5,160,160,393,SBD
2,Olivia Hardingham,F,2003,,19,,,Raw,FR-O,62.8,63,142.5,150,153,153,57.5,62.5,-65,62.5,145,155,157.5,157.5,373,SBD
3,Luisa Vargas,F,1997,,25,,,Raw,FR-O,62.9,63,-117.5,125,132.5,132.5,-57.5,57.5,60,60,160,172.5,-180,172.5,365,SBD
4,Charlotte West,F,2000,,22,,,Raw,FR-O,63,63,112.5,120,125,125,70,75,80,80,132.5,140,147.5,147.5,352.5,SBD
5,Ellie Bettell-Higgins,F,2003,,19,,,Raw,FR-O,61.7,63,-122.5,122.5,132.5,132.5,55,60,62.5,62.5,137.5,147.5,155,155,350,SBD
6,Anne Burns,F,2003,,19,,,Raw,FR-O,61.9,63,120,125,130,130,70,75,-77.5,75,130,137.5,145,145,350,SBD
7,Emily Rodrigues,F,2004,,18,,,Raw,FR-O,62.4,63,112.5,117.5,122.5,122.5,52.5,-55,-55,52.5,160,167.5,175,175,350,SBD
8,Suki Moss,F,2000,,22,,,Raw,FR-O,62,63,112.5,120,122.5,122.5,75,80,-82.5,80,125,135,142.5,142.5,345,SBD
9,Jessica Lally,F,2001,,21,,,Raw,FR-O,62.1,63,130,135,-137.5,135,57.5,62.5,-65,62.5,140,147.5,-152.5,147.5,345,SBD
10,Ali Whitwell,F,1998,,24,,,Raw,FR-O,62.3,63,-125,-125,125,125,57.5,60,-62.5,60,157.5,-170,-170,157.5,342.5,SBD
11,Haidee Rodgers,F,2004,,18,,,Raw,FR-O,60.2,63,107.5,112.5,117.5,117.5,-55,55,62.5,62.5,140,150,160,160,340,SBD
12,Molly Wickett,F,2000,,22,,,Raw,FR-O,60.3,63,115,122.5,-127.5,122.5,55,60,-62.5,60,135,147.5,152.5,152.5,335,SBD
13,Alice Marjot,F,2001,,21,,,Raw,FR-O,61.4,63,115,120,125,125,-52.5,52.5,55,55,140,147.5,155,155,335,SBD
14,Sophie Fowler,F,2003,,19,,,Raw,FR-O,60.7,63,112.5,117.5,120,120,50,55,-57.5,55,137.5,142.5,150,150,325,SBD
15,Angel Walker,F,2003,,19,,,Raw,FR-O,62.4,63,-112.5,-117.5,117.5,117.5,50,55,-57.5,55,140,145,152.5,152.5,325,SBD
16,Anna Foster,F,2002,,20,,,Raw,FR-O,63,63,107.5,115,-120,115,55,60,-65,60,132.5,140,147.5,147.5,322.5,SBD
17,Lovisa Arnesson-Cronhamre,F,1999,,23,,,Raw,FR-O,60.5,63,97.5,105,110,110,55,60,65,65,135,142.5,145,145,320,SBD
18,Rebecca Steaton,F,2003,,19,,,Raw,FR-O,60.9,63,117.5,-125,125,125,60,65,-67.5,65,120,130,-135,130,320,SBD
19,Gemma Smith,F,2001,,21,,,Raw,FR-O,62.2,63,102.5,110,115,115,60,65,-67.5,65,125,132.5,140,140,320,SBD
20,Effie Menzies,F,2001,,21,,,Raw,FR-O,59.6,63,100,107.5,110,110,57.5,62.5,65,65,122.5,132.5,140,140,315,SBD
21,Ellie Pacey,F,2002,,20,,,Raw,FR-O,61,63,115,122.5,-127.5,122.5,67.5,70,-72.5,70,112.5,122.5,-127.5,122.5,315,SBD
22,Lauren Keating,F,2001,,21,,,Raw,FR-O,62.7,63,-102.5,102.5,112.5,112.5,55,-57.5,-60,55,135,145,-150,145,312.5,SBD
23,Katy White,F,2000,,22,,,Raw,FR-O,62,63,-97.5,97.5,105,105,65,-67.5,-67.5,65,130,140,-150,140,310,SBD
24,Natalie Wickett,F,2001,,21,,,Raw,FR-O,62.1,63,-110,110,117.5,117.5,55,57.5,60,60,120,127.5,132.5,132.5,310,SBD
25,Chloe Sowerby,F,1998,,24,,,Raw,FR-O,62.8,63,-120,125,-130,125,55,60,-65,60,115,-122.5,125,125,310,SBD
26,Alisa Brown,F,1999,,23,,,Raw,FR-O,63,63,90,102.5,-110,102.5,60,65,-70,65,132.5,142.5,-150,142.5,310,SBD
27,Laura Haas,F,1997,,25,,,Raw,FR-O,60.3,63,-100,102.5,-107.5,102.5,47.5,50,55,55,130,140,150,150,307.5,SBD
28,Lily Coward,F,2003,,19,,,Raw,FR-O,62.4,63,105,-112.5,112.5,112.5,-42.5,42.5,45,45,142.5,147.5,-152.5,147.5,305,SBD
29,Runa Kolaczynska,F,2003,,19,,,Raw,FR-O,61.9,63,92.5,100,102.5,102.5,-55,55,60,60,125,132.5,-137.5,132.5,295,SBD
30,Ioana Noea,F,2003,,19,,,Raw,FR-O,61.3,63,97.5,-100,-100,97.5,50,55,-57.5,55,130,137.5,-142.5,137.5,290,SBD
31,Chien Lin Soh,F,1999,,23,,,Raw,FR-O,62.6,63,95,102.5,107.5,107.5,50,-55,-55,50,110,125,-132.5,125,282.5,SBD
DQ,Rachel Jackson,F,1999,,23,,,Raw,FR-O,,63,,,,,,,,,,,,,,SBD
1,Llio Godfrey-Flower,F,2001,,21,,,Raw,FR-O,67.8,69,132.5,142.5,147.5,147.5,90,96,100,100,160,170,-175,170,417.5,SBD
2,Sharon Sandford,F,1998,,24,,,Raw,FR-O,67.8,69,137.5,148,-153,148,80,-85,85,85,160,172.5,-185,172.5,405.5,SBD
3,Anastacia Thompson,F,2001,,21,,,Raw,FR-O,67.9,69,135,142.5,-150,142.5,60,65,67.5,67.5,162.5,175,190.5,190.5,400.5,SBD
4,Domiziana Turcatti,F,1995,,27,,,Raw,FR-O,65.6,69,130,137.5,142.5,142.5,70,75,77.5,77.5,162.5,172.5,180,180,400,SBD
5,Benedetta Lupattelli Gencarelli,F,1999,,23,,,Raw,FR-O,66.1,69,130,140,145,145,65,70,-72.5,70,162.5,172.5,180,180,395,SBD
6,Isabel Dowling,F,2001,,22,,,Raw,FR-O,67,69,132.5,140,-145,140,82.5,87.5,-90,87.5,147.5,160,-170,160,387.5,SBD
7,Lauren Skeates,F,2002,,20,,,Raw,FR-O,67.1,69,132.5,-140,-142.5,132.5,72.5,77.5,80,80,152.5,165,175,175,387.5,SBD
8,Laura Haywood,F,2003,,19,,,Raw,FR-O,68.7,69,120,125,127.5,127.5,-72.5,75,77.5,77.5,150,155,157.5,157.5,362.5,SBD
9,Ayishah Roberts,F,2002,,20,,,Raw,FR-O,64.1,69,117.5,125,-130,125,67.5,-72.5,72.5,72.5,145,155,-160,155,352.5,SBD
10,Renata Costa,F,2002,,20,,,Raw,FR-O,66.4,69,117.5,125,130,130,70,72.5,75,75,125,132.5,140,140,345,SBD
11,Jess Blatchford,F,2002,,20,,,Raw,FR-O,66.9,69,107.5,115,-120,115,67.5,70,72.5,72.5,145,155,-162.5,155,342.5,SBD
12,Lucy Reynolds,F,2002,,20,,,Raw,FR-O,67.3,69,-122.5,122.5,-130,122.5,55,60,-62.5,60,145,155,160,160,342.5,SBD
13,Caitlin Mirzayantz,F,2002,,20,,,Raw,FR-O,68,69,120,130,135,135,65,-70,70,70,125,135,-145,135,340,SBD
14,Tierney McArdle,F,1998,,24,,,Raw,FR-O,68.8,69,-117.5,122.5,-125,122.5,52.5,55,-57.5,55,150,162.5,-165,162.5,340,SBD
15,Kelsey-May Bradley,F,2000,,23,,,Raw,FR-O,67,69,120,127.5,135,135,50,52.5,-55,52.5,130,140,150,150,337.5,SBD
16,Mia Versluys,F,2002,,20,,,Raw,FR-O,68.3,69,112.5,120,122.5,122.5,47.5,52.5,-55,52.5,140,150,157.5,157.5,332.5,SBD
17,Zara Guppy,F,2001,,22,,,Raw,FR-O,66.2,69,95,102.5,110,110,62.5,67.5,70,70,140,150,-160,150,330,SBD
18,Emily Marston,F,2001,,21,,,Raw,FR-O,67.8,69,117.5,-125,125,125,50,52.5,55,55,135,145,150,150,330,SBD
19,Phoebe Pothecary,F,2003,,19,,,Raw,FR-O,64.6,69,112.5,120,125,125,60,65,-70,65,122.5,130,137.5,137.5,327.5,SBD
20,Sophia Somera,F,2001,,21,,,Raw,FR-O,65,69,122.5,-130,130,130,40,45,-47.5,45,142.5,-150,150,150,325,SBD
21,Lizzy Olowe,F,2003,,19,,,Raw,FR-O,68.9,69,105,-112.5,112.5,112.5,70,72.5,-75,72.5,140,-150,-150,140,325,SBD
22,Jessica Bean,F,2003,,19,,,Raw,FR-O,66.7,69,105,110,115,115,67.5,75,-77.5,75,117.5,125,130,130,320,SBD
23,Samantha Gurumurthy,F,1998,,25,,,Raw,FR-O,67.9,69,102.5,110,-112.5,110,60,62.5,-65,62.5,130,140,142.5,142.5,315,SBD
24,Hannah Sharp,F,1999,,23,,,Raw,FR-O,67.9,69,100,107.5,112.5,112.5,52.5,57.5,-60,57.5,110,120,125,125,295,SBD
DQ,Abigail Withers,F,2003,,19,,,Raw,FR-O,,69,,,,,,,,,,,,,,SBD
DQ,Fiona MacDonald,F,2002,,20,,,Raw,FR-O,,69,,,,,,,,,,,,,,SBD
DQ,Amy Williams,F,1998,,24,,,Raw,FR-O,,69,,,,,,,,,,,,,,SBD
1,Benedict Grant,M,2001,,21,,,Raw,MR-O,64.7,66,197.5,207.5,215,215,125,132.5,135,135,207.5,222.5,232.5,232.5,582.5,SBD
2,Sirjan Rana,M,2002,,20,,,Raw,MR-O,65,66,150,160,167.5,167.5,95,100,105,105,210,-222.5,222.5,222.5,495,SBD
3,Pri Antonyrajan,M,1999,,23,,,Raw,MR-O,65.4,66,170,177.5,-182.5,177.5,92.5,100,105,105,190,205,212.5,212.5,495,SBD
4,Joe Ho,M,2001,,21,,,Raw,MR-O,65.3,66,145,155,157.5,157.5,97.5,102.5,105,105,205,220,227.5,227.5,490,SBD
5,Joaquin Robles Riaza,M,2002,,20,,,Raw,MR-O,64.2,66,155,162.5,167.5,167.5,110,115,-117.5,115,190,200,205,205,487.5,SBD
6,George Nicholl,M,2001,,21,,,Raw,MR-O,62.3,66,165,175,180,180,102.5,110,112.5,112.5,182.5,192.5,-200,192.5,485,SBD
7,Justin Lam,M,2002,,20,,,Raw,MR-O,65.3,66,147.5,157.5,160,160,97.5,102.5,105,105,197.5,210,-220,210,475,SBD
8,Seshan Chandrasekaram,M,2003,,19,,,Raw,MR-O,64.7,66,145,152.5,155,155,102.5,107.5,110,110,187.5,202.5,205,205,470,SBD
9,Zain Farooq,M,2004,,18,,,Raw,MR-O,63.8,66,-162.5,-162.5,162.5,162.5,92.5,100,102.5,102.5,190,200,-205,200,465,SBD
10,Nour El Eid,M,2003,,19,,,Raw,MR-O,65.3,66,155,-165,165,165,97.5,102.5,107.5,107.5,170,182.5,192.5,192.5,465,SBD
11,Zakariae Ouahi,M,2002,,20,,,Raw,MR-O,64.4,66,140,147.5,152.5,152.5,90,95,-97.5,95,-200,-200,200,200,447.5,SBD
DQ,Luis Soto #4,M,2003,,19,,,Raw,MR-O,65.4,66,-155,-155,-155,,110,115,-120,115,175,185,-192.5,185,,SBD
1,Ashleigh Sutton,F,2001,,21,,,Raw,FR-O,73.9,76,145,155,162.5,162.5,67.5,72.5,75,75,182.5,192.5,196,196,433.5,SBD
2,Millie Mabbutt,F,2001,,21,,,Raw,FR-O,74.9,76,152.5,162.5,170,170,80,85,-90,85,162.5,172.5,177.5,177.5,432.5,SBD
3,Odette Tobaiwa,F,1999,,23,,,Raw,FR-O,74.4,76,140,147.5,152.5,152.5,100,-108,-108,100,167.5,177.5,-180,177.5,430,SBD
4,Aimee Guthrie,F,2003,,19,,,Raw,FR-O,73.2,76,130,140,145,145,92.5,97.5,102.5,102.5,155,167.5,-182.5,167.5,415,SBD
5,Lizzy White,F,2004,,18,,,Raw,FR-O,75.1,76,130,140,145,145,-72.5,75,80,80,-155,167.5,-172.5,167.5,392.5,SBD
6,Kerry Wood,F,2001,,21,,,Raw,FR-O,74.8,76,135,140,145,145,72.5,75,77.5,77.5,150,157.5,165,165,387.5,SBD
7,Maryam Agoro,F,2002,,20,,,Raw,FR-O,71.1,76,145,152.5,-160,152.5,57.5,62.5,65,65,155,162.5,-170,162.5,380,SBD
8,Freya Finnegan,F,2000,,22,,,Raw,FR-O,73.6,76,-127.5,132.5,-137.5,132.5,85,-92.5,-92.5,85,145,152.5,160,160,377.5,SBD
9,Francesca Bond,F,2001,,21,,,Raw,FR-O,72.8,76,117.5,125,130,130,72.5,77.5,-80,77.5,145,155,165,165,372.5,SBD
10,Rebecca Thomas-Sives,F,1998,,24,,,Raw,FR-O,72.1,76,-122.5,130,135,135,60,65,-70,65,135,147.5,160,160,360,SBD
11,Jenna Tweddle,F,2000,,22,,,Raw,FR-O,73.3,76,127.5,135,-140,135,70,-75,-75,70,145,150,155,155,360,SBD
12,Renata Jirovska,F,2000,,22,,,Raw,FR-O,75.9,76,112.5,-117.5,117.5,117.5,70,72.5,-75,72.5,160,165,170,170,360,SBD
13,Farida Hindi,F,2001,,21,,,Raw,FR-O,70.2,76,117.5,125,132.5,132.5,65,-70,-70,65,140,150,-157.5,150,347.5,SBD
14,Sally Sweeney,F,2001,,21,,,Raw,FR-O,74.5,76,122.5,130,-135,130,57.5,62.5,-65,62.5,145,155,-160,155,347.5,SBD
15,Emmanuela Onah,F,2002,,20,,,Raw,FR-O,74.6,76,115,125,130,130,55,60,-65,60,150,157.5,-162.5,157.5,347.5,SBD
16,Madeleine Reynolds,F,2003,,19,,,Raw,FR-O,75.7,76,122.5,130,135,135,60,-65,-65,60,135,142.5,150,150,345,SBD
17,Isobel Webster,F,2001,,21,,,Raw,FR-O,71.9,76,112.5,120,125,125,62.5,67.5,70,70,132.5,140,147.5,147.5,342.5,SBD
18,Eve Hesslewood,F,2004,,18,,,Raw,FR-O,74.8,76,110,120,-127.5,120,57.5,62.5,-67.5,62.5,132.5,142.5,150,150,332.5,SBD
19,Eilin Alsop,F,2002,,20,,,Raw,FR-O,73.6,76,102.5,110,112.5,112.5,60,62.5,65,65,145,150,-155,150,327.5,SBD
20,Sophia King-Mason,F,2001,,21,,,Raw,FR-O,72.8,76,-125,-125,125,125,55,60,-62.5,60,125,135,-147.5,135,320,SBD
1,Antoine Darmon,M,1999,,23,,,Raw,MR-O,82.9,83,-240,250,258,258,145,152.5,157.5,157.5,265,280,-295,280,695.5,SBD
2,Chomba Mumba,M,2001,,21,,,Raw,MR-O,81.9,83,212.5,225,-230,225,152.5,160,165,165,270,285,292.5,292.5,682.5,SBD
3,Manson Adagu,M,,,,,,Raw,MR-O,81,83,220,235,245,245,155,162.5,-165,162.5,245,257.5,272.5,272.5,680,SBD
4,Duncan Law,M,2000,,22,,,Raw,MR-O,82.5,83,-215,220,227.5,227.5,157.5,165,-170,165,235,252.5,260,260,652.5,SBD
5,Samuel Beddoes,M,2002,,20,,,Raw,MR-O,80.4,83,210,222.5,230,230,130,132.5,135,135,255,270,280,280,645,SBD
6,Tom Field,M,2001,,21,,,Raw,MR-O,82,83,-210,-210,210,210,165,172.5,-180,172.5,240,250,257.5,257.5,640,SBD
7,Tom Maidment,M,2001,,21,,,Raw,MR-O,81.6,83,195,207.5,-217.5,207.5,137.5,145,150,150,245,265,280,280,637.5,SBD
8,Joao Pedro Freitas,M,2003,,19,,,Raw,MR-O,79.1,83,220,232.5,-237.5,232.5,137.5,142.5,-147.5,142.5,240,260,-270,260,635,SBD
9,Arun Spencer,M,2002,,20,,,Raw,MR-O,81.9,83,205,220,-225,220,135,142.5,145,145,242.5,257.5,262.5,262.5,627.5,SBD
10,Dylan Affum,M,2000,,22,,,Raw,MR-O,82.1,83,197.5,210,220,220,135,-142.5,142.5,142.5,242.5,257.5,265,265,627.5,SBD
11,Tobi Falase,M,2002,,20,,,Raw,MR-O,82.8,83,200,215,-225,215,115,-120,125,125,240,255,270,270,610,SBD
12,Connor Leadbeater,M,1998,,24,,,Raw,MR-O,80.6,83,205,212.5,-222.5,212.5,160,165,-170,165,205,220,230,230,607.5,SBD
13,Stephen Dixon,M,1998,,24,,,Raw,MR-O,81.7,83,-190,195,207.5,207.5,127.5,-135,135,135,240,255,265,265,607.5,SBD
14,Boluwade Seidu,M,2004,,18,,,Raw,MR-O,81.6,83,212.5,225,232.5,232.5,-117.5,125,127.5,127.5,225,240,245,245,605,SBD
15,Alfred Dewson,M,2003,,19,,,Raw,MR-O,82.6,83,205,215,-220,215,-135,135,-140,135,245,255,-270,255,605,SBD
16,Zeyuan Chen,M,2001,,21,,,Raw,MR-O,81.8,83,195,200,205,205,135,140,-145,140,235,245,255,255,600,SBD
17,Richard Huynh,M,1997,,25,,,Raw,MR-O,82.4,83,207.5,217.5,225,225,122.5,130,135,135,225,240,-260,240,600,SBD
18,Adam Cronin,M,2001,,21,,,Raw,MR-O,81,83,187.5,202.5,212.5,212.5,117.5,122.5,127.5,127.5,237.5,255,-270,255,595,SBD
19,Vinnie Murphy,M,2001,,21,,,Raw,MR-O,82.5,83,195,210,215,215,130,135,-140,135,230,245,-250,245,595,SBD
20,Henry Lushington,M,2002,,20,,,Raw,MR-O,81,83,190,197.5,207.5,207.5,125,130,132.5,132.5,235,250,-260,250,590,SBD
21,Jordan Dutch,M,2002,,20,,,Raw,MR-O,82.1,83,197.5,212.5,217.5,217.5,122.5,130,135,135,215,232.5,-240,232.5,585,SBD
22,JJ Daley,M,2000,,22,,,Raw,MR-O,82.1,83,187.5,197.5,207.5,207.5,-132.5,132.5,-140,132.5,217.5,230,237.5,237.5,577.5,SBD
23,Aubtin Yazdiha,M,2003,,19,,,Raw,MR-O,82.1,83,195,210,217.5,217.5,120,-130,-130,120,225,237.5,-245,237.5,575,SBD
24,Joel Bassil,M,2004,,18,,,Raw,MR-O,82.7,83,185,192.5,200,200,125,-127.5,127.5,127.5,235,247.5,-260,247.5,575,SBD
25,Bryn Ruskin,M,2002,,20,,,Raw,MR-O,79,83,170,180,185,185,132.5,140,145,145,230,237.5,-250,237.5,567.5,SBD
26,Alex Tamlyn,M,2001,,21,,,Raw,MR-O,77.6,83,175,-187.5,187.5,187.5,122.5,-130,130,130,222.5,237.5,247.5,247.5,565,SBD
27,Shadman Saqib,M,2002,,20,,,Raw,MR-O,77.7,83,175,187.5,190,190,135,-147.5,147.5,147.5,205,225,-237.5,225,562.5,SBD
28,Lucas Reynolds #2,M,2000,,22,,,Raw,MR-O,81.6,83,210,217.5,225,225,117.5,122.5,-127.5,122.5,205,215,-220,215,562.5,SBD
29,Dan Lillis,M,2003,,19,,,Raw,MR-O,79.4,83,190,-200,200,200,120,125,130,130,230,-232.5,-245,230,560,SBD
30,Luke Easton,M,1999,,23,,,Raw,MR-O,82.5,83,182.5,192.5,-200,192.5,120,125,127.5,127.5,230,240,-245,240,560,SBD
31,Haris Ahmed,M,2002,,20,,,Raw,MR-O,81.1,83,195,207.5,-212.5,207.5,112.5,120,122.5,122.5,207.5,225,-235,225,555,SBD
32,Joe Robinson #4,M,2000,,22,,,Raw,MR-O,81.5,83,177.5,187.5,192.5,192.5,120,-125,-125,120,220,237.5,-257.5,237.5,550,SBD
33,Daniel Dzimega,M,1999,,23,,,Raw,MR-O,82.2,83,175,-185,187.5,187.5,-115,122.5,-130,122.5,225,240,-255,240,550,SBD
34,Sameer Barakat,M,2000,,22,,,Raw,MR-O,82.8,83,180,187.5,190,190,117.5,125,-127.5,125,225,232.5,-245,232.5,547.5,SBD
35,Sam Taylor #6,M,2002,,20,,,Raw,MR-O,78.1,83,172.5,177.5,-182.5,177.5,125,130,-135,130,235,-245,-245,235,542.5,SBD
36,Yusuf Ben-Tarifite,M,1999,,23,,,Raw,MR-O,81.9,83,-180,-180,180,180,110,117.5,120,120,220,230,-235,230,530,SBD
DQ,Patrik Backor,M,2003,,19,,,Raw,MR-O,82.8,83,222.5,235,-242.5,235,-152.5,-152.5,-152.5,,,,,,,SBD
DQ,Monty Horton-Szar,M,2003,,19,,,Raw,MR-O,,83,,,,,,,,,,,,,,SBD
DQ,Justin Ricafrente,M,2001,,21,,,Raw,MR-O,,83,,,,,,,,,,,,,,SBD
DQ,Tom Potter #1,M,2002,,20,,,Raw,MR-O,,83,,,,,,,,,,,,,,SBD
1,Aaron Blackmore,M,2000,,22,,,Raw,MR-O,92.5,93,265,281,293,293,167.5,170,175,175,275,292.5,302.5,302.5,770.5,SBD
2,Cyrus Khine,M,1999,,23,,,Raw,MR-O,91.3,93,260,275,283.5,283.5,142.5,152.5,157.5,157.5,275,295,305,305,746,SBD
3,Andrew Wallace #1,M,2001,,21,,,Raw,MR-O,92.3,93,-225,232.5,242.5,242.5,160,170,177.5,177.5,262.5,280,292.5,292.5,712.5,SBD
4,Nicholas Hwong,M,2001,,21,,,Raw,MR-O,91.8,93,232.5,247.5,255,255,157.5,165,167.5,167.5,255,270,280,280,702.5,SBD
5,Sean Isomura-Gillard,M,2001,,21,,,Raw,MR-O,92.2,93,220,235,242.5,242.5,157.5,167.5,175,175,275,285,-300,285,702.5,SBD
6,Folahan Adelakun,M,2001,,21,,,Raw,MR-O,92.3,93,-250,-250,250,250,130,137.5,-140,137.5,280,302.5,-310,302.5,690,SBD
7,James Rowan,M,2003,,19,,,Raw,MR-O,92.6,93,232.5,245,255,255,127.5,135,140,140,275,-290,290,290,685,SBD
8,Carlo Zanetti,M,2002,,20,,,Raw,MR-O,91.9,93,220,-235,-240,220,162.5,170,-175,170,270,290,-307.5,290,680,SBD
9,Nicolas Ribeiro,M,2003,,19,,,Raw,MR-O,91.2,93,205,220,230,230,-142.5,142.5,-147.5,142.5,305,-322.5,-325,305,677.5,SBD
10,Freddie Martin,M,2001,,21,,,Raw,MR-O,92.2,93,225,235,245,245,150,157.5,-165,157.5,250,265,272.5,272.5,675,SBD
11,James Ainley,M,2001,,21,,,Raw,MR-O,92.1,93,-215,220,230,230,152.5,-160,162.5,162.5,250,265,272.5,272.5,665,SBD
12,Stephanos Karidis,M,1999,,23,,,Raw,MR-O,92.7,93,-240,-250,250,250,140,145,-147.5,145,270,-290,-290,270,665,SBD
13,Kian Doyle,M,2003,,19,,,Raw,MR-O,92.6,93,195,210,220,220,150,160,-170,160,260,280,-300,280,660,SBD
14,Ilhan Omar Nur Azam,M,2002,,20,,,Raw,MR-O,90.6,93,205,217.5,225,225,132.5,137.5,-142.5,137.5,265,280,292.5,292.5,655,SBD
15,Thomas Scott,M,2002,,20,,,Raw,MR-O,90.6,93,-220,-232.5,232.5,232.5,140,145,147.5,147.5,270,-287.5,-287.5,270,650,SBD
16,James West #3,M,2004,,18,,,Raw,MR-O,89.5,93,220,235,242.5,242.5,132.5,137.5,142.5,142.5,-260,260,-285,260,645,SBD
17,Dawud Uddin,M,2003,,19,,,Raw,MR-O,92.5,93,220,-230,230,230,132.5,137.5,-140,137.5,250,265,275,275,642.5,SBD
18,Harris Hammam,M,2003,,19,,,Raw,MR-O,92.5,93,207.5,-217.5,217.5,217.5,130,135,140,140,252.5,267.5,280,280,637.5,SBD
19,Brandon Reynolds #1,M,2000,,22,,,Raw,MR-O,89.9,93,200,215,227.5,227.5,140,147.5,-152.5,147.5,242.5,257.5,-272.5,257.5,632.5,SBD
20,Nathaniel Woodbridge,M,2002,,20,,,Raw,MR-O,91,93,215,222.5,227.5,227.5,140,-145,-145,140,247.5,260,265,265,632.5,SBD
21,Martin Enitan,M,2003,,19,,,Raw,MR-O,92.4,93,210,222.5,230,230,120,125,130,130,237.5,252.5,265,265,625,SBD
22,Ty Aina,M,2003,,19,,,Raw,MR-O,86.5,93,177.5,187.5,195,195,110,117.5,122.5,122.5,267.5,282.5,300,300,617.5,SBD
23,George Denton,M,2001,,21,,,Raw,MR-O,90.8,93,207.5,210,225,225,132.5,140,147.5,147.5,225,245,-250,245,617.5,SBD
24,James Puddy,M,2003,,19,,,Raw,MR-O,88.4,93,190,200,-207.5,200,155,162.5,167.5,167.5,230,240,247.5,247.5,615,SBD
25,Robert MacFarlane,M,1998,,24,,,Raw,MR-O,90.2,93,180,200,-210,200,150,155,162.5,162.5,220,242.5,250,250,612.5,SBD
26,Aditya Chaudhary,M,2001,,21,,,Raw,MR-O,92.5,93,205,217.5,222.5,222.5,132.5,137.5,142.5,142.5,230,245,247.5,247.5,612.5,SBD
27,Yaqin Hasan,M,2004,,18,,,Raw,MR-O,91.3,93,215,225,-227.5,225,130,137.5,140,140,230,240,245,245,610,SBD
28,Luke Wyles,M,2002,,20,,,Raw,MR-O,86.3,93,202.5,212.5,-217.5,212.5,112.5,120,-122.5,120,247.5,262.5,275,275,607.5,SBD
29,Alexander Foggie,M,2002,,20,,,Raw,MR-O,91.7,93,212.5,227.5,230,230,107.5,115,-120,115,240,255,260,260,605,SBD
30,Marcus Tam,M,2001,,21,,,Raw,MR-O,88.5,93,200,212.5,220,220,130,137.5,140,140,227.5,242.5,-255,242.5,602.5,SBD
31,Jonathon Corrigan,M,2004,,18,,,Raw,MR-O,91.6,93,195,205,210,210,135,142.5,-147.5,142.5,230,240,250,250,602.5,SBD
32,Josh Barnard,M,2000,,22,,,Raw,MR-O,91.6,93,195,210,220,220,112.5,122.5,130,130,240,252.5,-260,252.5,602.5,SBD
33,David Coope,M,2002,,20,,,Raw,MR-O,88.9,93,192.5,202.5,212.5,212.5,127.5,135,137.5,137.5,225,242.5,250,250,600,SBD
34,Isaak Nathan,M,2002,,20,,,Raw,MR-O,90.4,93,215,230,240,240,115,120,125,125,220,235,-245,235,600,SBD
35,James Laing,M,2004,,18,,,Raw,MR-O,92.6,93,185,200,210,210,140,-147.5,-147.5,140,225,235,250,250,600,SBD
36,Kallum Green,M,2004,,18,,,Raw,MR-O,91.2,93,200,-210,-210,200,140,150,-157.5,150,215,225,242.5,242.5,592.5,SBD
37,Harry Eisinger,M,2004,,18,,,Raw,MR-O,89.2,93,195,207.5,-215,207.5,137.5,-145,-145,137.5,235,245,-255,245,590,SBD
38,Murray Martin,M,2003,,19,,,Raw,MR-O,89.3,93,197.5,207.5,215,215,120,127.5,130,130,-235,-245,245,245,590,SBD
39,Anthony Moore,M,2003,,19,,,Raw,MR-O,89.8,93,200,210,220,220,115,122.5,-127.5,122.5,235,247.5,-257.5,247.5,590,SBD
40,Ricards Hibsfelds,M,1999,,23,,,Raw,MR-O,89.3,93,210,-220,-225,210,135,-140,140,140,225,-237.5,237.5,237.5,587.5,SBD
41,Adam Khan,M,2001,,21,,,Raw,MR-O,90.7,93,180,187.5,195,195,130,-140,-140,130,-237.5,245,260,260,585,SBD
42,Jana Sivananda,M,2002,,20,,,Raw,MR-O,91.9,93,180,190,200,200,145,-152.5,-157.5,145,220,-235,237.5,237.5,582.5,SBD
43,Ethan Grigor,M,1998,,24,,,Raw,MR-O,92.2,93,207.5,-217.5,-217.5,207.5,120,125,127.5,127.5,-230,235,245,245,580,SBD
44,Shyam Popat,M,1997,,25,,,Raw,MR-O,87.6,93,190,200,210,210,130,137.5,140,140,-222.5,227.5,-242.5,227.5,577.5,SBD
45,Dylan Murphy,M,2003,,19,,,Raw,MR-O,88.2,93,212.5,225,232.5,232.5,115,120,122.5,122.5,222.5,-232.5,-232.5,222.5,577.5,SBD
46,Kincaid Anderberg,M,2003,,19,,,Raw,MR-O,91.4,93,200,210,-220,210,135,-145,-145,135,210,222.5,230,230,575,SBD
47,Nick Green,M,1999,,23,,,Raw,MR-O,90.4,93,185,195,200,200,120,130,-135,130,230,-240,-240,230,560,SBD
DQ,Nathan Rodricks,M,2002,,20,,,Raw,MR-O,86.8,93,-200,-210,-210,,137.5,-145,-150,137.5,205,220,235,235,,SBD
DQ,Bruce Hill,M,2002,,20,,,Raw,MR-O,91.3,93,195,-197.5,-215,195,120,127.5,-130,127.5,-262.5,-262.5,-262.5,,,SBD
DQ,Michael Michalowski,M,2003,,19,,,Raw,MR-O,,93,,,,,,,,,,,,,,SBD
1,Sam Edgar,F,2000,,22,,,Raw,FR-O,79.9,84,140,147.5,-150,147.5,75,80,-85,80,175,182.5,185,185,412.5,SBD
2,Jasmine Mack,F,1991,,31,,,Raw,FR-O,84,84,145,155,165,165,75,80,-85,80,-145,155,167.5,167.5,412.5,SBD
3,Glesni Tegid,F,1999,,23,Wales,,Raw,FR-O,83.1,84,140,147.5,152.5,152.5,77.5,82.5,85,85,145,155,162.5,162.5,400,SBD
4,Ada Adamczyk,F,2004,,19,,,Raw,FR-O,83.4,84,130,140,145,145,75,80,-82.5,80,150,162.5,170,170,395,SBD
5,Sophie Griffiths,F,2002,,20,,,Raw,FR-O,79.6,84,110,120,127.5,127.5,72.5,77.5,,77.5,130,142.5,155,155,360,SBD
6,Amy McCarthy,F,1995,,27,,,Raw,FR-O,82.1,84,115,122.5,130,130,82.5,85,-87.5,85,135,145,-152.5,145,360,SBD
DQ,Zoe Abbott,F,2002,,20,,,Raw,FR-O,,84,,,,,,,,,,,,,,SBD
DQ,Martha Day,F,2004,,19,,,Raw,FR-O,,84,,,,,,,,,,,,,,SBD
1,Caitlin Davies,F,2002,,20,,,Raw,FR-O,133.1,84+,-165,-173,173,173,80,85,-90,85,162.5,172.5,-178,172.5,430.5,SBD
2,Laura Etfer,F,1999,,23,,,Raw,FR-O,103.9,84+,140,150,-160,150,75,82.5,87.5,87.5,150,162.5,170,170,407.5,SBD
3,Jameliah Oseki-Simms,F,2003,,19,,,Raw,FR-O,99.2,84+,130,140,150,150,87.5,93,95.5,95.5,145,-160,-162.5,145,390.5,SBD
4,Naomi D'Almeida,F,2005,,18,,,Raw,FR-O,91.2,84+,125,132.5,137.5,137.5,65,-67.5,67.5,67.5,155,165,172.5,172.5,377.5,SBD
5,Hulda Hermannsdottir,F,1999,,23,,,Raw,FR-O,109.8,84+,130,137.5,147.5,147.5,60,65,-70,65,140,150,-160,150,362.5,SBD
DQ,Faye Burnhill,F,1999,,23,,,Raw,FR-O,,84+,,,,,,,,,,,,,,SBD
1,Jamie Jonathan Foord,M,2002,,20,,,Raw,MR-O,103.1,105,250,265,280,280,160,167.5,-175,167.5,295,311,315.5,315.5,763,SBD
2,Joe Moore #1,M,2000,,22,,,Raw,MR-O,102.2,105,230,245,255,255,160,167.5,170,170,285,305,315,315,740,SBD
3,Jack Gilchrist,M,1999,,23,,,Raw,MR-O,102.9,105,230,250,267.5,267.5,147.5,155,-160,155,270,300,-310,300,722.5,SBD
4,Rohan Ewels,M,2001,,21,,,Raw,MR-O,103.2,105,-230,230,250,250,152.5,157.5,-162.5,157.5,275,295,-307.5,295,702.5,SBD
5,Kacper Curylo,M,2004,,19,,,Raw,MR-O,102.1,105,275,288,-295,288,-147.5,152.5,-157.5,152.5,240,250,-260,250,690.5,SBD
6,Theo Hall,M,1999,,23,,,Raw,MR-O,103.7,105,230,240,250,250,150,157.5,162.5,162.5,247.5,262.5,272.5,272.5,685,SBD
7,George Nash,M,2001,,21,,,Raw,MR-O,105,105,260,267.5,-272.5,267.5,132.5,137.5,142.5,142.5,252.5,267.5,-275,267.5,677.5,SBD
8,William Guo,M,2002,,20,,,Raw,MR-O,103.8,105,250,267.5,-275,267.5,145,150,155,155,220,232.5,240,240,662.5,SBD
9,Christopher Babey,M,1996,,26,,,Raw,MR-O,104.4,105,245,255,265,265,130,137.5,-140,137.5,240,250,260,260,662.5,SBD
10,Marc-Thomas Russo,M,1999,,23,,,Raw,MR-O,100.1,105,230,240,250,250,140,-150,-150,140,250,260,270,270,660,SBD
11,Josh Smith #36,M,2005,,18,,,Raw,MR-O,102.4,105,-227.5,-227.5,227.5,227.5,165,-175,-175,165,252.5,262.5,-275,262.5,655,SBD
12,Alfie Kirton,M,2003,,19,,,Raw,MR-O,102.6,105,220,230,240,240,127.5,137.5,-142.5,137.5,240,257.5,270,270,647.5,SBD
13,Myles Holmes,M,2001,,21,,,Raw,MR-O,104.4,105,217.5,-230,230,230,132.5,140,-142.5,140,255,272.5,-280,272.5,642.5,SBD
14,Rhys Limbert,M,2001,,21,,,Raw,MR-O,96.8,105,217.5,227.5,235,235,-150,150,157.5,157.5,230,240,-250,240,632.5,SBD
15,Nikolay Nikolaev #1,M,2004,,19,,,Raw,MR-O,101.4,105,217.5,-230,230,230,127.5,-135,-135,127.5,255,270,-280,270,627.5,SBD
16,Fraser Morrison,M,2000,,22,,,Raw,MR-O,104.2,105,212.5,220,225,225,157.5,162.5,-165,162.5,220,232.5,240,240,627.5,SBD
17,Lewis Fee,M,2004,,19,,,Raw,MR-O,97.6,105,200,207.5,212.5,212.5,115,122.5,130,130,255,270,277.5,277.5,620,SBD
18,Louis Amoroso,M,2003,,19,,,Raw,MR-O,99.6,105,215,-225,225,225,125,-132.5,132.5,132.5,240,250,-260,250,607.5,SBD
DQ,Tommy Galpin,M,2002,,20,,,Raw,MR-O,104.2,105,-210,-210,-210,,-155,-155,-155,,,,,,,SBD
DQ,Angus Dunn,M,2000,,22,,,Raw,MR-O,,105,,,,,,,,,,,,,,SBD
DQ,Alasdair Wilson,M,2001,,21,,,Raw,MR-O,,105,,,,,,,,,,,,,,SBD
1,Lewis Kelly,M,2000,,22,,,Raw,MR-O,116.6,120,260,280,-292.5,280,172.5,180,-186,180,280,305,320.5,320.5,780.5,SBD
2,Noah Miles,M,2002,,20,,,Raw,MR-O,105.1,120,255,270,280,280,150,155,-160,155,275,290,300,300,735,SBD
3,Petr Stefan,M,1999,,23,,,Raw,MR-O,117.5,120,245,255,265,265,160,167.5,-172.5,167.5,250,262.5,270,270,702.5,SBD
4,Harry Booth,M,2002,,20,,,Raw,MR-O,114.4,120,210,222.5,235,235,150,157.5,-162.5,157.5,260,280,300,300,692.5,SBD
5,Dominic Schoen,M,2000,,22,,,Raw,MR-O,117.8,120,-235,235,242.5,242.5,167.5,172.5,175,175,255,267.5,-280,267.5,685,SBD
6,Oscar Smillie,M,2002,,20,,,Raw,MR-O,111.1,120,245,260,-275,260,142.5,147.5,152.5,152.5,252.5,270,-290,270,682.5,SBD
7,Theo Davies,M,2002,,20,,,Raw,MR-O,111.6,120,207.5,220,230,230,127.5,135,-140,135,275,285,-290,285,650,SBD
8,Max Heyburn,M,2001,,21,,,Raw,MR-O,114.5,120,212.5,225,235,235,132.5,140,-145,140,255,267.5,272.5,272.5,647.5,SBD
9,Toby Turner,M,2002,,20,,,Raw,MR-O,119.1,120,227.5,235,240,240,150,-160,-160,150,255,-265,-265,255,645,SBD
10,Josh Mason,M,1998,,24,,,Raw,MR-O,118.3,120,215,-230,230,230,142.5,-150,-150,142.5,255,270,-275,270,642.5,SBD
11,Archie Carter,M,1998,,24,,,Raw,MR-O,113.5,120,75,,,75,147.5,155,162.5,162.5,75,,,75,312.5,SBD
DQ,Archie Downing,M,2005,,18,,,Raw,MR-O,,120,,,,,,,,,,,,,,SBD
1,Tomos Atkinson,M,2001,,21,,,Raw,MR-O,137.5,120+,225,237.5,250,250,135,142.5,150,150,250,272.5,287.5,287.5,687.5,SBD
